%!PS-Adobe-3.0 EPSF-3.0
%%Creator: inkscape 0.46
%%Pages: 1
%%Orientation: Portrait
%%BoundingBox: 99 287 132 304
%%HiResBoundingBox: 99.945544 287.07544 131.45715 303.38841
%%EndComments
%%BeginSetup
%%EndSetup
%%Page: 1 1
0 842 translate
0.8 -0.8 scale
0 0 0 setrgbcolor
[] 0 setdash
1 setlinewidth
0 setlinejoin
0 setlinecap
gsave [1 0 0 1 0 0] concat
gsave [1.0334812 0 0 0.9676035 0 0] concat
gsave
0 0 0 setrgbcolor
newpath
121.26975 699.13035 moveto
121.25691 700.64539 122.53442 701.73673 125.10228 702.40436 curveto
126.92545 702.80239 127.84346 703.6562 127.8563 704.9658 curveto
127.8563 705.69765 127.61235 706.33319 127.12446 706.87244 curveto
126.61089 707.41169 125.98818 707.69415 125.25635 707.71983 curveto
124.43463 707.70699 123.72847 707.45021 123.13787 706.94947 curveto
122.52158 706.4359 121.92455 705.54358 121.34678 704.27248 curveto
120.88457 704.38804 lineto
121.40456 706.64133 lineto
122.30331 707.77119 123.58724 708.34896 125.25635 708.37463 curveto
126.3862 708.3618 127.30421 708.00872 128.01038 707.31539 curveto
128.71653 706.62207 129.07603 705.81962 129.08888 704.90803 curveto
129.07603 703.08485 128.02963 701.92932 125.94967 701.44142 curveto
123.89538 700.88934 122.87466 700.04837 122.8875 698.9185 curveto
122.8875 698.17383 123.09292 697.54471 123.50378 697.03112 curveto
123.92748 696.51756 124.53734 696.26078 125.33338 696.26077 curveto
125.9625 696.26078 126.57879 696.5304 127.18224 697.06964 curveto
127.73432 697.58322 128.13234 698.26371 128.37629 699.11109 curveto
128.74221 699.11109 lineto
128.89629 697.06964 lineto
127.65087 696.13239 126.42472 695.66375 125.21783 695.66374 curveto
125.21783 695.683 lineto
123.90822 695.68301 122.93243 696.01041 122.29047 696.6652 curveto
121.62283 697.33286 121.28259 698.15457 121.26975 699.13035 curveto
fill
grestore
gsave
0 0 0 setrgbcolor
newpath
132.03549 697.85926 moveto
131.09822 699.10468 130.62959 700.63255 130.62959 702.44288 curveto
130.62959 704.07348 131.07896 705.44728 131.97772 706.56429 curveto
132.87646 707.69415 133.85225 708.29118 134.90507 708.35538 curveto
135.99641 708.30402 137.00429 707.72625 137.92873 706.62207 curveto
138.85315 705.41518 139.31536 703.95792 139.31537 702.25029 curveto
139.31536 700.43996 138.84673 698.91851 137.90947 697.68593 curveto
137.12626 696.63312 136.17616 696.10029 135.05914 696.08743 curveto
135.05914 696.06818 lineto
135.0463 696.06819 135.03988 696.07461 135.03989 696.08743 curveto
135.02704 696.07461 134.99494 696.07461 134.94359 696.08743 curveto
133.89077 696.08745 132.9214 696.67806 132.03549 697.85926 curveto
133.13325 698.32147 moveto
133.71102 697.23014 134.32088 696.66522 134.96285 696.62668 curveto
135.59197 696.6267 136.17616 697.05039 136.71541 697.89777 curveto
137.46008 699.10468 137.83884 700.55552 137.85169 702.25029 curveto
137.85168 704.06064 137.49218 705.51148 136.77319 706.60281 curveto
136.19542 707.34749 135.57271 707.75193 134.90507 707.81613 curveto
134.35298 707.76477 133.75595 707.3154 133.11399 706.468 curveto
132.44635 705.49222 132.10611 704.15051 132.09327 702.44288 curveto
132.09327 700.97921 132.43993 699.60541 133.13325 698.32147 curveto
fill
grestore
gsave
0 0 0 setrgbcolor
newpath
140.9909 697.35852 moveto
140.9909 706.83392 lineto
140.9909 707.11639 140.93954 707.3154 140.83682 707.43095 curveto
140.74695 707.55934 140.55436 707.62354 140.25906 707.62354 curveto
140.25906 708.16279 lineto
142.45458 708.16279 lineto
142.45458 707.62354 lineto
142.13359 707.62354 141.91532 707.56576 141.79977 707.45021 curveto
141.70989 707.33465 141.65854 707.12923 141.6457 706.83392 curveto
141.6457 699.28442 lineto
144.03381 706.94947 lineto
144.68861 706.94947 lineto
144.68861 706.8917 lineto
147.23079 698.05185 lineto
147.23079 706.69911 lineto
147.23078 707.05861 147.17301 707.30256 147.05746 707.43095 curveto
146.96758 707.55934 146.73647 707.62354 146.36414 707.62354 curveto
146.36414 708.16279 lineto
149.54186 708.16279 lineto
149.54186 707.62354 lineto
149.15667 707.62354 148.91915 707.55292 148.82928 707.41169 curveto
148.7394 707.2833 148.69446 707.04577 148.69447 706.69911 curveto
148.69447 697.43556 lineto
148.69446 697.26866 148.74582 697.11459 148.84854 696.97335 curveto
148.93841 696.8578 149.16951 696.80003 149.54186 696.80002 curveto
149.54186 696.26077 lineto
147.09598 696.26077 lineto
144.63083 704.79247 lineto
142.18495 696.26077 lineto
140.25906 696.26077 lineto
140.25906 696.80002 lineto
140.45165 696.80003 140.62498 696.86422 140.77905 696.9926 curveto
140.90744 697.10817 140.97806 697.23014 140.9909 697.35852 curveto
fill
grestore
gsave
0 0 0 setrgbcolor
newpath
158.998 696.26077 moveto
150.40852 696.26077 lineto
150.40852 696.80002 lineto
151.23023 696.80003 151.64109 697.15311 151.64109 697.85926 curveto
151.64109 706.62207 lineto
151.64109 707.28972 151.22381 707.62354 150.38926 707.62354 curveto
150.38926 708.16279 lineto
158.2469 708.16279 lineto
158.97874 705.25469 lineto
158.63208 705.13913 lineto
158.16986 706.19196 157.65629 706.8596 157.09137 707.14206 curveto
156.43655 707.42453 155.6341 707.58502 154.684 707.62354 curveto
154.59412 707.62354 154.50424 707.62354 154.41437 707.62354 curveto
153.55414 707.57218 153.1176 707.23836 153.10477 706.62207 curveto
153.10477 702.36585 lineto
155.20399 702.36585 lineto
156.17977 702.36585 156.66766 702.95004 156.66767 704.11841 curveto
157.14914 704.11841 lineto
157.14914 700.34366 lineto
156.66767 700.34366 lineto
156.66766 701.28094 156.17977 701.77525 155.20399 701.8266 curveto
153.10477 701.8266 lineto
153.10477 697.85926 lineto
153.10476 697.19163 153.56698 696.84497 154.49141 696.81927 curveto
154.52992 696.80645 154.5877 696.80645 154.66474 696.81927 curveto
156.14125 696.80645 157.12988 696.94768 157.63062 697.24297 curveto
158.1827 697.56397 158.478 698.23161 158.51653 699.2459 curveto
158.998 699.2459 lineto
158.998 696.26077 lineto
fill
grestore
grestore
gsave
0 0 0 setrgbcolor
newpath
126.58315 689.32257 moveto
126.09356 689.32257 125.69773 689.51528 125.39565 689.9007 curveto
125.13002 690.22882 124.99721 690.61945 124.99721 691.07257 curveto
124.99721 691.54132 125.14825 691.91893 125.45033 692.20538 curveto
125.75241 692.50226 126.13002 692.6559 126.58315 692.66632 curveto
127.05189 692.6507 127.45293 692.47882 127.78627 692.1507 curveto
128.07273 691.86945 128.21595 691.51007 128.21596 691.07257 curveto
128.21595 690.59862 128.07793 690.18455 127.8019 689.83038 curveto
127.54668 689.49705 127.15606 689.32778 126.63002 689.32257 curveto
126.63002 689.31476 lineto
126.62481 689.31476 126.62221 689.31737 126.62221 689.32257 curveto
126.60658 689.31737 126.59356 689.31737 126.58315 689.32257 curveto
125.9269 689.86945 moveto
126.08314 689.6507 126.3045 689.54132 126.59096 689.54132 curveto
126.86179 689.54132 127.08314 689.65851 127.25502 689.89288 curveto
127.4946 690.22101 127.617 690.61424 127.62221 691.07257 curveto
127.6222 691.5257 127.51283 691.88507 127.29408 692.1507 curveto
127.14825 692.3382 126.91127 692.43715 126.58315 692.44757 curveto
126.29669 692.44236 126.06491 692.3434 125.88783 692.1507 curveto
125.69512 691.94236 125.59616 691.58299 125.59096 691.07257 curveto
125.59096 690.57257 125.70294 690.17153 125.9269 689.86945 curveto
fill
grestore
gsave
0 0 0 setrgbcolor
newpath
130.05971 689.5257 moveto
130.05971 691.79132 lineto
130.05971 692.07257 130.14564 692.28872 130.31752 692.43976 curveto
130.47377 692.58038 130.68731 692.6559 130.95815 692.66632 curveto
131.25502 692.66111 131.50762 692.58299 131.71596 692.43195 curveto
131.90866 692.29132 132.08575 692.0283 132.24721 691.64288 curveto
132.02065 691.54913 lineto
131.90606 691.81997 131.77325 692.01528 131.62221 692.13507 curveto
131.48158 692.24445 131.32273 692.31216 131.14565 692.3382 curveto
130.95293 692.33299 130.82012 692.28611 130.74721 692.19757 curveto
130.66387 692.0882 130.6196 691.95278 130.6144 691.79132 curveto
130.6144 689.5257 lineto
131.93471 689.5257 lineto
132.02065 689.30695 lineto
130.6144 689.30695 lineto
130.6144 688.1507 lineto
130.41127 688.1507 lineto
130.34356 688.54133 130.17169 688.83039 129.89565 689.01788 curveto
129.57794 689.2106 129.27064 689.30695 128.97377 689.30695 curveto
128.97377 689.5257 lineto
130.05971 689.5257 lineto
fill
grestore
gsave
0 0 0 setrgbcolor
newpath
133.26283 688.61945 moveto
133.26283 692.09601 lineto
133.26283 692.27309 133.15606 692.36424 132.94252 692.36945 curveto
132.94252 692.5882 lineto
134.16908 692.5882 lineto
134.16908 692.36945 lineto
133.93471 692.36945 133.81752 692.2783 133.81752 692.09601 curveto
133.81752 690.26788 lineto
133.8644 690.26788 lineto
134.27585 689.91893 134.62221 689.74445 134.90346 689.74445 curveto
135.18991 689.74445 135.33575 689.87987 135.34096 690.1507 curveto
135.34096 692.01788 lineto
135.34095 692.25226 135.23939 692.36945 135.03627 692.36945 curveto
135.03627 692.5882 lineto
136.2394 692.5882 lineto
136.2394 692.36945 lineto
136.03106 692.36945 135.91648 692.25226 135.89565 692.01788 curveto
135.89565 690.1507 lineto
135.89564 689.64549 135.56491 689.39289 134.90346 689.39288 curveto
134.64825 689.39289 134.28627 689.60903 133.81752 690.04132 curveto
133.81752 687.68195 lineto
133.73158 687.68195 lineto
132.85658 688.11163 lineto
132.85658 688.33038 lineto
133.12742 688.33039 133.26283 688.42674 133.26283 688.61945 curveto
fill
grestore
gsave
0 0 0 setrgbcolor
newpath
138.63783 692.65851 moveto
139.27845 692.65851 139.79929 692.31476 140.20033 691.62726 curveto
140.02065 691.56476 lineto
139.83314 691.81997 139.64304 692.01007 139.45033 692.13507 curveto
139.242 692.26007 139.02325 692.31997 138.79408 692.31476 curveto
138.4295 692.31476 138.14044 692.19757 137.9269 691.9632 curveto
137.71856 691.72882 137.61439 691.41893 137.6144 691.03351 curveto
137.61439 690.98143 137.61439 690.93455 137.6144 690.89288 curveto
140.0519 690.89288 lineto
140.0519 690.67413 lineto
140.0519 690.67413 lineto
140.01543 690.29914 139.91387 690.01268 139.74721 689.81476 curveto
139.50762 689.48143 139.14304 689.31476 138.65346 689.31476 curveto
138.117 689.31476 137.71335 689.47882 137.44252 689.80695 curveto
137.16127 690.1507 137.02064 690.55955 137.02065 691.03351 curveto
137.02064 691.49184 137.15867 691.86684 137.43471 692.15851 curveto
137.73679 692.49184 138.13783 692.65851 138.63783 692.65851 curveto
139.45033 690.67413 moveto
137.63002 690.67413 lineto
137.66648 690.39289 137.74721 690.15851 137.87221 689.97101 curveto
138.04929 689.68455 138.30971 689.53872 138.65346 689.53351 curveto
138.92429 689.53351 139.12481 689.63247 139.25502 689.83038 curveto
139.36439 690.00747 139.4295 690.28872 139.45033 690.67413 curveto
fill
grestore
gsave
0 0 0 setrgbcolor
newpath
141.38783 690.18195 moveto
141.38783 691.97882 lineto
141.38783 692.07778 141.33835 692.16893 141.2394 692.25226 curveto
141.14044 692.33038 141.00762 692.36945 140.84096 692.36945 curveto
140.84096 692.5882 lineto
142.60658 692.5882 lineto
142.60658 692.36945 lineto
142.38783 692.36945 142.22116 692.33299 142.10658 692.26007 curveto
141.99721 692.17674 141.94252 692.08299 141.94252 691.97882 curveto
141.94252 690.44757 lineto
142.1196 690.24445 142.30189 690.08559 142.4894 689.97101 curveto
142.69252 689.8408 142.8696 689.78351 143.02065 689.79913 curveto
143.19252 689.78351 143.33575 689.86945 143.45033 690.05695 curveto
143.51283 690.17153 143.60137 690.23403 143.71596 690.24445 curveto
143.79929 690.24445 143.87741 690.2158 143.95033 690.15851 curveto
144.00241 690.10643 144.03627 689.99705 144.0519 689.83038 curveto
144.04668 689.73143 143.96856 689.61945 143.81752 689.49445 curveto
143.64043 689.37987 143.44512 689.31997 143.23158 689.31476 curveto
143.03887 689.30955 142.79668 689.41112 142.50502 689.61945 curveto
142.31752 689.74445 142.13002 689.93195 141.94252 690.18195 curveto
141.94252 689.31476 lineto
141.85658 689.31476 lineto
140.9894 689.76788 lineto
140.9894 689.93976 lineto
141.13523 689.93976 141.23939 689.96059 141.3019 690.00226 curveto
141.35398 690.03351 141.38262 690.09341 141.38783 690.18195 curveto
fill
grestore
gsave
0 0 0 setrgbcolor
newpath
fill
grestore
gsave
0 0 0 setrgbcolor
newpath
150.81752 687.68195 moveto
150.59877 687.68195 lineto
150.53627 687.85903 150.41908 687.98924 150.24721 688.07257 curveto
150.03887 688.16633 149.74981 688.2132 149.38002 688.2132 curveto
149.38002 688.43195 lineto
149.75502 688.43195 149.992 688.45278 150.09096 688.49445 curveto
150.17429 688.5257 150.21856 688.58299 150.22377 688.66632 curveto
150.22377 692.01007 lineto
150.22377 692.11945 150.16648 692.20799 150.0519 692.2757 curveto
149.93731 692.3382 149.63783 692.36945 149.15346 692.36945 curveto
149.15346 692.5882 lineto
152.06752 692.5882 lineto
152.06752 692.36945 lineto
151.53106 692.36945 151.18471 692.33559 151.02846 692.26788 curveto
150.88783 692.20538 150.81752 692.11945 150.81752 692.01007 curveto
150.81752 687.68195 lineto
fill
grestore
gsave
0 0 0 setrgbcolor
newpath
154.58315 689.32257 moveto
154.09356 689.32257 153.69773 689.51528 153.39565 689.9007 curveto
153.13002 690.22882 152.99721 690.61945 152.99721 691.07257 curveto
152.99721 691.54132 153.14825 691.91893 153.45033 692.20538 curveto
153.75241 692.50226 154.13002 692.6559 154.58315 692.66632 curveto
155.05189 692.6507 155.45293 692.47882 155.78627 692.1507 curveto
156.07273 691.86945 156.21595 691.51007 156.21596 691.07257 curveto
156.21595 690.59862 156.07793 690.18455 155.8019 689.83038 curveto
155.54668 689.49705 155.15606 689.32778 154.63002 689.32257 curveto
154.63002 689.31476 lineto
154.62481 689.31476 154.62221 689.31737 154.62221 689.32257 curveto
154.60658 689.31737 154.59356 689.31737 154.58315 689.32257 curveto
153.9269 689.86945 moveto
154.08314 689.6507 154.3045 689.54132 154.59096 689.54132 curveto
154.86179 689.54132 155.08314 689.65851 155.25502 689.89288 curveto
155.4946 690.22101 155.617 690.61424 155.62221 691.07257 curveto
155.6222 691.5257 155.51283 691.88507 155.29408 692.1507 curveto
155.14825 692.3382 154.91127 692.43715 154.58315 692.44757 curveto
154.29669 692.44236 154.06491 692.3434 153.88783 692.1507 curveto
153.69512 691.94236 153.59616 691.58299 153.59096 691.07257 curveto
153.59096 690.57257 153.70294 690.17153 153.9269 689.86945 curveto
fill
grestore
gsave
0 0 0 setrgbcolor
newpath
158.44252 693.51788 moveto
159.04148 693.51267 159.47116 693.43195 159.73158 693.2757 curveto
159.9972 693.11945 160.13002 692.90851 160.13002 692.64288 curveto
160.13002 692.31476 159.97116 692.05434 159.65346 691.86163 curveto
159.3722 691.70538 159.03366 691.62726 158.63783 691.62726 curveto
158.10137 691.68976 157.82794 691.68195 157.81752 691.60382 curveto
157.79669 691.52049 157.90866 691.42674 158.15346 691.32257 curveto
158.20554 691.32778 158.27064 691.33299 158.34877 691.3382 curveto
158.6821 691.33299 158.98158 691.24184 159.24721 691.06476 curveto
159.51804 690.88768 159.65606 690.66372 159.66127 690.39288 curveto
159.66127 690.12205 159.55189 689.89028 159.33315 689.69757 curveto
159.3696 689.69237 159.40345 689.68716 159.43471 689.68195 curveto
159.56491 689.68716 159.67168 689.73664 159.75502 689.83038 curveto
159.82273 689.92934 159.91387 689.97882 160.02846 689.97882 curveto
160.07533 689.97882 160.117 689.95278 160.15346 689.9007 curveto
160.18991 689.84862 160.21075 689.7757 160.21596 689.68195 curveto
160.21595 689.58299 160.15345 689.48403 160.02846 689.38507 curveto
159.96075 689.33299 159.87481 689.30435 159.77065 689.29913 curveto
159.67689 689.29914 159.5545 689.33299 159.40346 689.4007 curveto
159.32533 689.42153 159.21856 689.4606 159.08315 689.51788 curveto
158.85918 689.38768 158.59356 689.31997 158.28627 689.31476 curveto
158.28627 689.30695 lineto
158.28106 689.30695 158.27846 689.30955 158.27846 689.31476 curveto
158.25762 689.30955 158.2446 689.30955 158.2394 689.31476 curveto
157.95814 689.31476 157.70554 689.40591 157.48158 689.5882 curveto
157.242 689.79132 157.1196 690.03612 157.1144 690.32257 curveto
157.11439 690.64028 157.2446 690.89028 157.50502 691.07257 curveto
157.60398 691.14028 157.71335 691.19757 157.83315 691.24445 curveto
157.69252 691.28091 157.57273 691.33299 157.47377 691.4007 curveto
157.28106 691.51528 157.1821 691.63507 157.1769 691.76007 curveto
157.17689 691.87466 157.26544 691.98143 157.44252 692.08038 curveto
157.48939 692.10122 157.5545 692.12466 157.63783 692.1507 curveto
157.53887 692.20278 157.45033 692.26007 157.37221 692.32257 curveto
157.13783 692.5257 157.02064 692.73143 157.02065 692.93976 curveto
157.02585 693.14809 157.17429 693.30174 157.46596 693.4007 curveto
157.70554 693.4684 158.03106 693.50747 158.44252 693.51788 curveto
159.45033 692.37726 moveto
159.59616 692.47622 159.67168 692.5882 159.6769 692.7132 curveto
159.67689 692.8434 159.58835 692.96059 159.41127 693.06476 curveto
159.24981 693.15851 159.03106 693.20799 158.75502 693.2132 curveto
158.34877 693.19236 158.05971 693.14809 157.88783 693.08038 curveto
157.69512 693.01268 157.60398 692.89288 157.6144 692.72101 curveto
157.59356 692.55955 157.66908 692.41111 157.84096 692.2757 curveto
157.87741 692.24445 157.92169 692.21841 157.97377 692.19757 curveto
158.15085 692.2132 158.37221 692.22101 158.63783 692.22101 curveto
159.00241 692.22101 159.27325 692.27309 159.45033 692.37726 curveto
157.70815 690.03351 moveto
157.70814 689.9033 157.76544 689.78872 157.88002 689.68976 curveto
157.97898 689.61164 158.07273 689.56997 158.16127 689.56476 curveto
158.36439 689.56476 158.54668 689.64289 158.70815 689.79913 curveto
158.94773 690.03351 159.06752 690.31216 159.06752 690.63507 curveto
159.06752 690.76528 158.992 690.88247 158.84096 690.98663 curveto
158.72637 691.05434 158.59877 691.09601 158.45815 691.11163 curveto
158.26544 691.09601 158.09096 691.00486 157.93471 690.8382 curveto
157.78887 690.64549 157.71335 690.37726 157.70815 690.03351 curveto
fill
grestore
gsave
0 0 0 setrgbcolor
newpath
162.58315 689.32257 moveto
162.09356 689.32257 161.69773 689.51528 161.39565 689.9007 curveto
161.13002 690.22882 160.99721 690.61945 160.99721 691.07257 curveto
160.99721 691.54132 161.14825 691.91893 161.45033 692.20538 curveto
161.75241 692.50226 162.13002 692.6559 162.58315 692.66632 curveto
163.05189 692.6507 163.45293 692.47882 163.78627 692.1507 curveto
164.07273 691.86945 164.21595 691.51007 164.21596 691.07257 curveto
164.21595 690.59862 164.07793 690.18455 163.8019 689.83038 curveto
163.54668 689.49705 163.15606 689.32778 162.63002 689.32257 curveto
162.63002 689.31476 lineto
162.62481 689.31476 162.62221 689.31737 162.62221 689.32257 curveto
162.60658 689.31737 162.59356 689.31737 162.58315 689.32257 curveto
161.9269 689.86945 moveto
162.08314 689.6507 162.3045 689.54132 162.59096 689.54132 curveto
162.86179 689.54132 163.08314 689.65851 163.25502 689.89288 curveto
163.4946 690.22101 163.617 690.61424 163.62221 691.07257 curveto
163.6222 691.5257 163.51283 691.88507 163.29408 692.1507 curveto
163.14825 692.3382 162.91127 692.43715 162.58315 692.44757 curveto
162.29669 692.44236 162.06491 692.3434 161.88783 692.1507 curveto
161.69512 691.94236 161.59616 691.58299 161.59096 691.07257 curveto
161.59096 690.57257 161.70294 690.17153 161.9269 689.86945 curveto
fill
grestore
grestore
showpage
%%EOF
