%!PS-Adobe-3.0 EPSF-3.0
%%Creator: Adobe Illustrator(TM) 3.2
%%AI8_CreatorVersion: 12.0.1
%%For: (zidpc48) ()
%%Title: (logo_V8 [Konvertiert].eps)
%%CreationDate: 12/29/2005 11:37 AM
%%BoundingBox: 241 405 354 448
%%DocumentProcessColors: Cyan Magenta Yellow Black
%%DocumentSuppliedResources: procset Adobe_packedarray 2.0 0
%%+ procset Adobe_cmykcolor 1.1 0
%%+ procset Adobe_cshow 1.1 0
%%+ procset Adobe_customcolor 1.0 0
%%+ procset Adobe_pattern_AI3 1.0 0
%%+ procset Adobe_Illustrator_AI3 1.0 1
%AI3_ColorUsage: Color
%AI3_IncludePlacedImages
%%CMYKCustomColor: 1 1 1 1 ([Registration])
%AI3_TemplateBox: 298.5 420.3896 298.5 420.3896
%AI3_TileBox: 7.23779 7.30499 588.0378 834.585
%AI3_DocumentPreview: PC_ColorTIFF
%%PageOrigin:-16 30.8896
%AI7_GridSettings: 72 8 72 8 1 0 0.8 0.8 0.8 0.9 0.9 0.9
%AI9_Flatten: 1
%AI12_CMSettings: 00.MO
%%EndComments
%%BeginProlog
%%BeginResource: procset Adobe_packedarray 2.0 0
%%Title: (Packed Array Operators)
%%Version: 2.0 0
%%CreationDate: (8/2/90) ()
%%Copyright: ((C) 1987-1996 Adobe Systems Incorporated All Rights Reserved)
userdict /Adobe_packedarray 5 dict dup begin put
/initialize
{
/packedarray where
	{
	pop
	}
	{
	Adobe_packedarray begin
	Adobe_packedarray
		{
		dup xcheck
			{
			bind
			} if
		userdict 3 1 roll put
		} forall
 end
	} ifelse
} def
/terminate
{
} def
/packedarray
{
array astore readonly
} def
/setpacking
{
pop
} def
/currentpacking
{
false
} def
currentdict readonly pop end
%%EndResource
Adobe_packedarray /initialize get exec
%%BeginResource: procset Adobe_cmykcolor 1.1 0
%%Title: (CMYK Color Operators)
%%Version: 1.1 0
%%CreationDate: (1/23/89) ()
%%Copyright: ((C) 1987-1996 Adobe Systems Incorporated All Rights Reserved)
currentpacking true setpacking
userdict /Adobe_cmykcolor 4 dict dup begin put
/initialize
{
/setcmykcolor where
	{
	pop
	}
	{
	userdict /Adobe_cmykcolor_vars 2 dict dup begin put
	/_setrgbcolor
		/setrgbcolor load def
	/_currentrgbcolor
		/currentrgbcolor load def
	Adobe_cmykcolor begin
	Adobe_cmykcolor
		{
		dup xcheck
			{
			bind
			} if
		pop pop
		} forall
 end
 end
	Adobe_cmykcolor begin
	} ifelse
} def
/terminate
{
currentdict Adobe_cmykcolor eq
	{
 end
	} if
} def
/setcmykcolor
{
1 sub 4 1 roll
3
	{
	3 index add neg dup 0 lt
		{
		pop 0
		} if
	3 1 roll
	} repeat
Adobe_cmykcolor_vars /_setrgbcolor get exec
pop
} def 
/currentcmykcolor
{
Adobe_cmykcolor_vars /_currentrgbcolor get exec
3
	{
	1 sub neg 3 1 roll
	} repeat
0
} def
currentdict readonly pop end
setpacking
%%EndResource
%%BeginResource: procset Adobe_cshow 1.1 0
%%Title: (cshow Operator)
%%Version: 1.1 0
%%CreationDate: (1/23/89) ()
%%Copyright: ((C) 1987-1996 Adobe Systems Incorporated All Rights Reserved)
currentpacking true setpacking
userdict /Adobe_cshow 3 dict dup begin put
/initialize
{
/cshow where
	{
	pop
	}
	{
	userdict /Adobe_cshow_vars 1 dict dup begin put
	/_cshow
		{} def
	Adobe_cshow begin
	Adobe_cshow
		{
		dup xcheck
			{
			bind
			} if
		userdict 3 1 roll put
		} forall
 end
 end
	} ifelse
} def
/terminate
{
} def
/cshow
{
exch
Adobe_cshow_vars
	exch /_cshow
	exch put
	{
	0 0 Adobe_cshow_vars /_cshow get exec
	} forall
} def
currentdict readonly pop end
setpacking
%%EndResource
%%BeginResource: procset Adobe_customcolor 1.0 0
%%Title: (Custom Color Operators)
%%Version: 1.0 0
%%CreationDate: (5/9/88) ()
%%Copyright: ((C) 1987-1996 Adobe Systems Incorporated All Rights Reserved)
currentpacking true setpacking
userdict /Adobe_customcolor 5 dict dup begin put
/initialize
{
/setcustomcolor where
	{
	pop
	}
	{
	Adobe_customcolor begin
	Adobe_customcolor
		{
		dup xcheck
			{
			bind
			} if
		pop pop
		} forall
 end
	Adobe_customcolor begin
	} ifelse
} def
/terminate
{
currentdict Adobe_customcolor eq
	{
 end
	} if
} def
/findcmykcustomcolor
{
5 packedarray
}  def
/setcustomcolor
{
exch
aload pop pop
4
	{
	4 index mul 4 1 roll
	} repeat
5 -1 roll pop
setcmykcolor
} def
/setoverprint
{
pop
} def
currentdict readonly pop end
setpacking
%%EndResource
%%BeginResource: procset Adobe_pattern_AI3 1.1 0
%%Title: (Adobe Illustrator (R) Version 3.0 Pattern Operators)
%%Version: 1.1 0
%%CreationDate: (7/21/89) ()
%%Copyright: ((C) 1987-1996 Adobe Systems Incorporated All Rights Reserved)
currentpacking true setpacking
userdict /Adobe_pattern_AI3 16 dict dup begin put
/initialize
{
/definepattern where
	{
	pop
	}
	{
	Adobe_pattern_AI3 begin
	Adobe_pattern_AI3
		{
		dup xcheck
			{
			bind
			} if
		pop pop
		} forall
	mark
	cachestatus 7 1 roll pop pop pop pop exch pop exch
		{
		{
		10000 add
		dup 2 index gt
			{
			exit
			} if
		dup setcachelimit
		} loop
		} stopped
	cleartomark
	} ifelse
} def
/terminate
{
currentdict Adobe_pattern_AI3 eq
	{
 end
	} if
} def
errordict
/nocurrentpoint
{
pop
stop
} put
errordict
/invalidaccess
{
pop
stop
} put
/patternencoding
256 array def
0 1 255
{
patternencoding exch ( ) 2 copy exch 0 exch put cvn put
} for
/definepattern
{
17 dict begin
/uniform exch def
/cache exch def
/key exch def
/procarray exch def
/mtx exch matrix invertmatrix def
/height exch def
/width exch def
/ctm matrix currentmatrix def
/ptm matrix def
/str 32 string def
/slice 9 dict def
slice /s 1 put
slice /q 256 procarray length div sqrt floor cvi put
slice /b 0 put
/FontBBox [0 0 0 0] def
/FontMatrix mtx matrix copy def
/Encoding patternencoding def
/FontType 3 def
/BuildChar
	{
	exch
 begin
	/setstrokeadjust where {pop true setstrokeadjust} if
	slice begin
	dup q dup mul mod s idiv /i exch def
	dup q dup mul mod s mod /j exch def
	q dup mul idiv procarray exch get
	/xl j width s div mul def
	/xg j 1 add width s div mul def
	/yl i height s div mul def
	/yg i 1 add height s div mul def
	uniform
		{
		1 1
		}
		{
		width 0 dtransform
		dup mul exch dup mul add sqrt dup 1 add exch div
		0 height dtransform
		dup mul exch dup mul add sqrt dup 1 add exch div
		} ifelse
	width 0 cache
		{
		xl 4 index mul yl 4 index mul xg 6 index mul yg 6 index mul
		setcachedevice
		}
		{
		setcharwidth
		} ifelse
	gsave
	scale
	newpath
	xl yl moveto
	xg yl lineto
	xg yg lineto
	xl yg lineto
	closepath
	clip
	newpath
 end
 end
	exec
	grestore
	} def
key currentdict definefont
end
} def
/patterncachesize
{
gsave
newpath
0 0 moveto
width 0 lineto
width height lineto
0 height lineto
closepath
patternmatrix setmatrix
pathbbox
exch ceiling 4 -1 roll floor sub 3 1 roll
ceiling exch floor sub
mul 1 add
grestore
} def
/patterncachelimit
{
cachestatus 7 1 roll 6 npop 8 mul
} def
/patternpath
{
exch dup begin setfont
ctm setmatrix
concat
slice exch /b exch slice /q get dup mul mul put
FontMatrix concat
uniform
	{
	width 0 dtransform round width div exch round width div exch
	0 height dtransform round height div exch height div exch
	0 0 transform round exch round exch
	ptm astore setmatrix
	}
	{
	ptm currentmatrix pop
	} ifelse
{currentpoint} stopped not
	{
	2 npop
	pathbbox
	true
	4 index 3 index eq
	4 index 3 index eq
	and
		{
		pop false
			{
			{2 npop}
			{3 npop true}
			{7 npop true}
			{pop true}
			pathforall
			} stopped
			{
			5 npop true
			} if
		} if
		{
		height div ceiling height mul 4 1 roll
		width div ceiling width mul 4 1 roll
		height div floor height mul 4 1 roll
		width div floor width mul 4 1 roll
		2 index sub height div ceiling cvi exch
		3 index sub width div ceiling cvi exch
		4 2 roll moveto
		FontMatrix mtx invertmatrix
		dup dup 4 get exch 5 get rmoveto
		ptm ptm concatmatrix pop
		slice /s
		patterncachesize patterncachelimit div ceiling sqrt ceiling cvi
		dup slice /q get gt
			{
			pop slice /q get
			} if
		put
		0 1 slice /s get dup mul 1 sub
			{
			slice /b get add
			gsave
			0 1 str length 1 sub
				{
				str exch 2 index put
				} for
			pop
			dup
				{
				gsave
				ptm setmatrix
				1 index str length idiv {str show} repeat
				1 index str length mod str exch 0 exch getinterval show
				grestore
				0 height rmoveto
				} repeat
			grestore
			} for
		2 npop
		}
		{
		4 npop
		} ifelse
	} if
end
} def
/patternclip
{
clip
} def
/patternstrokepath
{
strokepath
} def
/patternmatrix
matrix def
/patternfill
{
dup type /dicttype eq
	{
	Adobe_pattern_AI3 /patternmatrix get
	} if
gsave
patternclip
Adobe_pattern_AI3 /patternpath get exec
grestore
newpath
} def
/patternstroke
{
dup type /dicttype eq
	{
	Adobe_pattern_AI3 /patternmatrix get
	} if
gsave
patternstrokepath
true
	{
		{
			{
			newpath 
			moveto
			}
			{
			lineto
			}
			{
			curveto
			}
			{
			closepath
			3 copy
			Adobe_pattern_AI3 /patternfill get exec
			} pathforall
		3 npop
		} stopped
			{
			5 npop
			patternclip
			Adobe_pattern_AI3 /patternfill get exec
			} if
	}
	{
	patternclip
	Adobe_pattern_AI3 /patternfill get exec
	} ifelse
grestore
newpath
} def
/patternashow
{
3 index type /dicttype eq
	{
	Adobe_pattern_AI3 /patternmatrix get 4 1 roll
	} if
	{
	2 npop (0) exch
	2 copy 0 exch put pop
	gsave
	false charpath currentpoint
	6 index 6 index 6 index
	Adobe_pattern_AI3 /patternfill get exec
	grestore
	newpath moveto
	2 copy rmoveto
	} exch cshow
5 npop
} def
/patternawidthshow
{
6 index type /dicttype eq
	{
	Adobe_pattern_AI3 /patternmatrix get 7 1 roll
	} if
	{
	2 npop (0) exch
	2 copy 0 exch put 
	gsave
	_sp eq {5 index 5 index rmoveto} if
	false charpath currentpoint
	9 index 9 index 9 index
	Adobe_pattern_AI3 /patternfill get exec
	grestore
	newpath moveto
	2 copy rmoveto
	} exch cshow
8 npop
} def
/patternashowstroke
{
4 index type /dicttype eq
	{
	patternmatrix /patternmatrix get 5 1 roll
	} if
4 1 roll
	{
	2 npop (0) exch
	2 copy 0 exch put pop
	gsave
	false charpath
	currentpoint
	4 index setmatrix
	7 index 7 index 7 index
	Adobe_pattern_AI3 /patternstroke get exec
	grestore
	newpath moveto
	2 copy rmoveto
	} exch cshow
6 npop
} def
/patternawidthshowstroke
{
7 index type /dicttype eq
	{
	patternmatrix /patternmatrix get 8 1 roll
	} if
7 1 roll
	{
	2 npop (0) exch
	2 copy 0 exch put
	gsave
	_sp eq {5 index 5 index rmoveto} if
	false charpath currentpoint
	7 index setmatrix
	10 index 10 index 10 index
	Adobe_pattern_AI3 /patternstroke get exec
	grestore
	newpath moveto
	2 copy rmoveto
	} exch cshow
9 npop
} def
currentdict readonly pop end
setpacking
%%EndResource
%%BeginResource: procset Adobe_Illustrator_AI3 1.1 0
%%Title: (Adobe Illustrator (R) Version 3.0 Full Prolog)
%%Version: 1.1 0
%%CreationDate: (3/7/1994) ()
%%Copyright: ((C) 1987-1996 Adobe Systems Incorporated All Rights Reserved)
currentpacking true setpacking
userdict /Adobe_Illustrator_AI3 71 dict dup begin put
/initialize
{
userdict /Adobe_Illustrator_AI3_vars 67 dict dup begin put
/_lp /none def
/_pf {} def
/_ps {} def
/_psf {} def
/_pss {} def
/_pjsf {} def
/_pjss {} def
/_pola 0 def
/_doClip 0 def
/cf	currentflat def
/_tm matrix def
/_renderStart [/e0 /r0 /a0 /o0 /e1 /r1 /a1 /i0] def 
/_renderEnd [null null null null /i1 /i1 /i1 /i1] def
/_render -1 def
/_rise 0 def
/_ax 0 def
/_ay 0 def
/_cx 0 def
/_cy 0 def
/_leading [0 0] def
/_ctm matrix def
/_mtx matrix def
/_sp 16#020 def
/_hyphen (-) def
/_fScl 0 def
/_cnt 0 def
/_hs 1 def
/_nativeEncoding 0 def
/_useNativeEncoding 0 def
/_tempEncode 0 def
/_pntr 0 def
/_tDict 2 dict def
/_wv 0 def
/Tx {} def
/Tj {} def
/CRender {} def
/_AI3_savepage {} def
/_gf null def
/_cf 4 array def
/_if null def
/_of false def
/_fc {} def
/_gs null def
/_cs 4 array def
/_is null def
/_os false def
/_sc {} def
/_pd 1 dict def
/_ed 15 dict def
/_pm matrix def
/_fm null def
/_fd null def
/_fdd null def
/_sm null def
/_sd null def
/_sdd null def
/_i null def
Adobe_Illustrator_AI3 begin
Adobe_Illustrator_AI3 dup /nc get begin
	{
	dup xcheck
		{
		bind
		} if
	pop pop
	} forall
end
end
end
Adobe_Illustrator_AI3 begin
Adobe_Illustrator_AI3_vars begin
newpath
} def
/terminate
{
end
end
} def
/_
null def
/ddef
{
Adobe_Illustrator_AI3_vars 3 1 roll put
} def
/xput
{
dup load dup length exch maxlength eq
	{
	dup dup load dup
	length 2 mul dict copy def
	} if
load begin def end
} def
/npop
{
	{
	pop
	} repeat
} def
/sw
{
dup length exch stringwidth
exch 5 -1 roll 3 index mul add
4 1 roll 3 1 roll mul add
} def
/swj
{
dup 4 1 roll
dup length exch stringwidth 
exch 5 -1 roll 3 index mul add
4 1 roll 3 1 roll mul add 
6 2 roll /_cnt 0 ddef
{1 index eq {/_cnt _cnt 1 add ddef} if} forall pop
exch _cnt mul exch _cnt mul 2 index add 4 1 roll 2 index add 4 1 roll pop pop
} def
/ss
{
4 1 roll
	{
	2 npop 
	(0) exch 2 copy 0 exch put pop
	gsave
	false charpath currentpoint
	4 index setmatrix
	stroke
	grestore
	moveto
	2 copy rmoveto
	} exch cshow
3 npop
} def
/jss
{
4 1 roll
	{
	2 npop 
	(0) exch 2 copy 0 exch put 
	gsave
	_sp eq 
		{
		exch 6 index 6 index 6 index 5 -1 roll widthshow  
		currentpoint
		}
		{
		false charpath currentpoint
		4 index setmatrix stroke
		}ifelse
	grestore
	moveto
	2 copy rmoveto
	} exch cshow
6 npop
} def
/sp
{
	{
	2 npop (0) exch
	2 copy 0 exch put pop
	false charpath
	2 copy rmoveto
	} exch cshow
2 npop
} def
/jsp
{
	{
	2 npop 
	(0) exch 2 copy 0 exch put 
	_sp eq 
		{
		exch 5 index 5 index 5 index 5 -1 roll widthshow  
		}
		{
		false charpath
		}ifelse
	2 copy rmoveto
	} exch cshow
5 npop
} def
/pl
{
transform
0.25 sub round 0.25 add exch
0.25 sub round 0.25 add exch
itransform
} def
/setstrokeadjust where
	{
	pop true setstrokeadjust
	/c
	{
	curveto
	} def
	/C
	/c load def
	/v
	{
	currentpoint 6 2 roll curveto
	} def
	/V
	/v load def
	/y
	{
	2 copy curveto
	} def
	/Y
	/y load def
	/l
	{
	lineto
	} def
	/L
	/l load def
	/m
	{
	moveto
	} def
	}
	{
	/c
	{
	pl curveto
	} def
	/C
	/c load def
	/v
	{
	currentpoint 6 2 roll pl curveto
	} def
	/V
	/v load def
	/y
	{
	pl 2 copy curveto
	} def
	/Y
	/y load def
	/l
	{
	pl lineto
	} def
	/L
	/l load def
	/m
	{
	pl moveto
	} def
	} ifelse
/d
{
setdash
} def
/cf	{} def
/i
{
dup 0 eq
	{
	pop cf
	} if
setflat
} def
/j
{
setlinejoin
} def
/J
{
setlinecap
} def
/M
{
setmiterlimit
} def
/w
{
setlinewidth
} def
/H
{} def
/h
{
closepath
} def
/N
{
_pola 0 eq 
	{
	_doClip 1 eq {clip /_doClip 0 ddef} if 
	newpath
	} 
	{
	/CRender {N} ddef
	}ifelse
} def
/n
{N} def
/F
{
_pola 0 eq 
	{
	_doClip 1 eq 
		{
		gsave _pf grestore clip newpath /_lp /none ddef _fc 
		/_doClip 0 ddef
		}
		{
		_pf
		}ifelse
	} 
	{
	/CRender {F} ddef
	}ifelse
} def
/f
{
closepath
F
} def
/S
{
_pola 0 eq 
	{
	_doClip 1 eq 
		{
		gsave _ps grestore clip newpath /_lp /none ddef _sc 
		/_doClip 0 ddef
		}
		{
		_ps
		}ifelse
	} 
	{
	/CRender {S} ddef
	}ifelse
} def
/s
{
closepath
S
} def
/B
{
_pola 0 eq 
	{
	_doClip 1 eq
	gsave F grestore 
		{
		gsave S grestore clip newpath /_lp /none ddef _sc
		/_doClip 0 ddef
		} 
		{
		S
		}ifelse
	}
	{
	/CRender {B} ddef
	}ifelse
} def
/b
{
closepath
B
} def
/W
{
/_doClip 1 ddef
} def
/*
{
count 0 ne 
	{
	dup type (stringtype) eq {pop} if
	} if 
_pola 0 eq {newpath} if
} def
/u
{} def
/U
{} def
/q
{
_pola 0 eq {gsave} if
} def
/Q
{
_pola 0 eq {grestore} if
} def
/*u
{
_pola 1 add /_pola exch ddef
} def
/*U
{
_pola 1 sub /_pola exch ddef 
_pola 0 eq {CRender} if
} def
/D
{pop} def
/*w
{} def
/*W
{} def
/`
{
/_i save ddef
6 1 roll 4 npop
concat pop
userdict begin
/showpage {} def
0 setgray
0 setlinecap
1 setlinewidth
0 setlinejoin
10 setmiterlimit
[] 0 setdash
/setstrokeadjust where {pop false setstrokeadjust} if
newpath
0 setgray
false setoverprint
} def
/~
{
end
_i restore
} def
/@
{} def
/&
{} def
/O
{
0 ne
/_of exch ddef
/_lp /none ddef
} def
/R
{
0 ne
/_os exch ddef
/_lp /none ddef
} def
/g
{
/_gf exch ddef
/_fc
{
_lp /fill ne
	{
	_of setoverprint
	_gf setgray
	/_lp /fill ddef
	} if
} ddef
/_pf
{
_fc
fill
} ddef
/_psf
{
_fc
ashow
} ddef
/_pjsf
{
_fc
awidthshow
} ddef
/_lp /none ddef
} def
/G
{
/_gs exch ddef
/_sc
{
_lp /stroke ne
	{
	_os setoverprint
	_gs setgray
	/_lp /stroke ddef
	} if
} ddef
/_ps
{
_sc
stroke
} ddef
/_pss
{
_sc
ss
} ddef
/_pjss
{
_sc
jss
} ddef
/_lp /none ddef
} def
/k
{
_cf astore pop
/_fc
{
_lp /fill ne
	{
	_of setoverprint
	_cf aload pop setcmykcolor
	/_lp /fill ddef
	} if
} ddef
/_pf
{
_fc
fill
} ddef
/_psf
{
_fc
ashow
} ddef
/_pjsf
{
_fc
awidthshow
} ddef
/_lp /none ddef
} def
/K
{
_cs astore pop
/_sc
{
_lp /stroke ne
	{
	_os setoverprint
	_cs aload pop setcmykcolor
	/_lp /stroke ddef
	} if
} ddef
/_ps
{
_sc
stroke
} ddef
/_pss
{
_sc
ss
} ddef
/_pjss
{
_sc
jss
} ddef
/_lp /none ddef
} def
/x
{
/_gf exch ddef
findcmykcustomcolor
/_if exch ddef
/_fc
{
_lp /fill ne
	{
	_of setoverprint
	_if _gf 1 exch sub setcustomcolor
	/_lp /fill ddef
	} if
} ddef
/_pf
{
_fc
fill
} ddef
/_psf
{
_fc
ashow
} ddef
/_pjsf
{
_fc
awidthshow
} ddef
/_lp /none ddef
} def
/X
{
/_gs exch ddef
findcmykcustomcolor
/_is exch ddef
/_sc
{
_lp /stroke ne
	{
	_os setoverprint
	_is _gs 1 exch sub setcustomcolor
	/_lp /stroke ddef
	} if
} ddef
/_ps
{
_sc
stroke
} ddef
/_pss
{
_sc
ss
} ddef
/_pjss
{
_sc
jss
} ddef
/_lp /none ddef
} def
/dp
{
dup null eq
{
pop
_dp 0 ne
	{
	0 1 _dp 1 sub _dl mod
		{
		_da exch get 3 get
		} for
	_dp 1 sub _dl mod 1 add packedarray
	_da 0 get aload pop 8 -1 roll 5 -1 roll pop 4 1 roll
	definepattern pop
	} if
}
{
_dp 0 ne _dp _dl mod 0 eq and
	{
	null dp
	} if
7 packedarray _da exch _dp _dl mod exch put
_dp _dl mod _da 0 get 4 get 2 packedarray
/_dp _dp 1 add def
} ifelse
} def
/E
{
_ed begin
dup 0 get type /arraytype ne
	{
	0
		{
		dup 1 add index type /arraytype eq
			{
			1 add
			}
			{
			exit
			} ifelse
		} loop
	array astore
	} if
/_dd exch def
/_ury exch def
/_urx exch def
/_lly exch def
/_llx exch def
/_n exch def
/_y 0 def
/_dl 4 def
/_dp 0 def
/_da _dl array def
0 1 _dd length 1 sub
	{
	/_d exch _dd exch get def
	0 2 _d length 2 sub
		{
		/_x exch def
		/_c _d _x get _ ne def
		/_r _d _x 1 add get cvlit def
		_r _ ne
			{
			_urx _llx sub _ury _lly sub [1 0 0 1 0 0] 
				[
				/save cvx
				_llx neg _lly neg /translate cvx
				_c
					{
					nc /begin cvx
					} if
				_r dup type /stringtype eq
					{
					cvx
					}
					{
					{exec} /forall cvx
					} ifelse
				_c
					{
					/end cvx
					} if
				/restore cvx
				] cvx
			/_fn 12 _n length add string def
			_y _fn cvs pop
			/_y _y 1 add def
			_fn 12 _n putinterval
			_fn _c false dp
			_d exch _x 1 add exch put
			} if
		} for
	} for
null dp
_n _dd /_pd
end xput
} def
/fc
{
_fm dup concatmatrix pop
} def
/p
{
/_fm exch ddef
9 -2 roll _pm translate fc
7 -2 roll _pm scale fc
5 -1 roll _pm rotate fc
4 -2 roll exch 0 ne
	{
	dup _pm rotate fc
	1 -1 _pm scale fc
	neg _pm rotate fc
	}
	{
	pop
	} ifelse
dup _pm rotate fc
exch dup sin exch cos div 1 0 0 1 0 6 2 roll
_pm astore fc
neg _pm rotate fc
_pd exch get /_fdd exch ddef
/_pf
{
save
/_doClip 0 ddef
0 1 _fdd length 1 sub
	{
	/_fd exch _fdd exch get ddef
	_fd
	0 2 _fd length 2 sub
		{
		gsave
		2 copy get dup _ ne
			{
			cvx exec _fc
			}
			{
			pop
			} ifelse
		2 copy 1 add get dup _ ne
			{
			aload pop findfont _fm
			patternfill
			}
			{
			pop
			fill
			} ifelse
		grestore
		pop
		} for
	pop
	} for
restore
newpath
} ddef
/_psf
{
save
/_doClip 0 ddef
0 1 _fdd length 1 sub
	{
	/_fd exch _fdd exch get ddef
	_fd
	0 2 _fd length 2 sub
		{
		gsave
		2 copy get dup _ ne
			{
			cvx exec _fc
			}
			{
			pop
			} ifelse
		2 copy 1 add get dup _ ne
			{
			aload pop findfont _fm
			9 copy 6 npop patternashow
			}
			{
			pop
			6 copy 3 npop ashow
			} ifelse
		grestore
		pop
		} for
	pop
	} for
restore
%3 npop newpath
sw rmoveto
} ddef
/_pjsf
{
save
/_doClip 0 ddef
0 1 _fdd length 1 sub
	{
	/_fd exch _fdd exch get ddef
	_fd
	0 2 _fd length 2 sub
		{
		gsave
		2 copy get dup _ ne
			{
			cvx exec _fc
			}
			{
			pop
			} ifelse
		2 copy 1 add get dup _ ne
			{
			aload pop findfont _fm
			12 copy 6 npop patternawidthshow
			}
			{
			pop 9 copy 3 npop awidthshow
			} ifelse
		grestore
		pop
		} for
	pop
	} for
restore
swj rmoveto
} ddef
/_lp /none ddef
} def
/sc
{
_sm dup concatmatrix pop
} def
/P
{
/_sm exch ddef
9 -2 roll _pm translate sc
7 -2 roll _pm scale sc
5 -1 roll _pm rotate sc
4 -2 roll exch 0 ne
	{
	dup _pm rotate sc
	1 -1 _pm scale sc
	neg _pm rotate sc
	}
	{
	pop
	} ifelse
dup _pm rotate sc
exch dup sin exch cos div 1 0 0 1 0 6 2 roll
_pm astore sc
neg _pm rotate sc
_pd exch get /_sdd exch ddef
/_ps
{
save
/_doClip 0 ddef
0 1 _sdd length 1 sub
	{
	/_sd exch _sdd exch get ddef
	_sd
	0 2 _sd length 2 sub
		{
		gsave
		2 copy get dup _ ne
			{
			cvx exec _sc
			}
			{
			pop
			} ifelse
		2 copy 1 add get dup _ ne
			{
			aload pop findfont _sm
			patternstroke
			}
			{
			pop stroke
			} ifelse
		grestore
		pop
		} for
	pop
	} for
restore
newpath
} ddef
/_pss
{
save
/_doClip 0 ddef
0 1 _sdd length 1 sub
	{
	/_sd exch _sdd exch get ddef
	_sd
	0 2 _sd length 2 sub
		{
		gsave
		2 copy get dup _ ne
			{
			cvx exec _sc
			}
			{
			pop
			} ifelse
		2 copy 1 add get dup _ ne
			{
			aload pop findfont _sm
			10 copy 6 npop patternashowstroke
			}
			{
			pop 7 copy 3 npop ss
			} ifelse
		grestore
		pop
		} for
	pop
	} for
restore
pop sw rmoveto
} ddef
/_pjss
{
save
/_doClip 0 ddef
0 1 _sdd length 1 sub
	{
	/_sd exch _sdd exch get ddef
	_sd
	0 2 _sd length 2 sub
		{
		gsave
		2 copy get dup _ ne
			{
			cvx exec _sc
			}
			{
			pop
			} ifelse
		2 copy 1 add get dup _ ne
			{
			aload pop findfont _sm
			13 copy 6 npop patternawidthshowstroke
			}
			{
			pop 10 copy 3 npop jss
			} ifelse
		grestore
		pop
		} for
	pop
	} for
restore
pop swj rmoveto
} ddef
/_lp /none ddef
} def
/A
{
pop
} def
/nc 3 dict def
nc begin
/setgray
{
pop
} bind def
/setcmykcolor
{
4 npop
} bind def
/setcustomcolor
{
2 npop
} bind def
currentdict readonly pop end
currentdict readonly pop end
setpacking
/annotatepage
{
} def
%%EndResource
%%EndProlog
%%BeginSetup
Adobe_cmykcolor /initialize get exec
Adobe_cshow /initialize get exec
Adobe_customcolor /initialize get exec
Adobe_pattern_AI3 /initialize get exec
Adobe_Illustrator_AI3 /initialize get exec
%AI3_BeginPattern: (Gitter auf Gitter)
(Gitter auf Gitter) 10.457 10.457 73.207 73.2051 [
%AI3_Tile
(0 O 0 R 0.027451 0.023529 0.14902 0 k
 0.027451 0.023529 0.14902 0 K
) @
(
%AI6_BeginPatternLayer
0 J 0 j 0.6 w 4 M []0 d10.457 36.6006 m
10.457 41.8311 L
15.6855 41.8311 L
26.1426 31.3711 L
26.1426 26.1416 L
20.9131 26.1416 L
10.457 36.6006 L
f
%AI6_EndPatternLayer
) &
(0 O 0 R 0.831373 0.65098 0.580392 0.698039 k
 0.831373 0.65098 0.580392 0.698039 K
) @
(
%AI6_BeginPatternLayer
0 J 0 j 0.6 w 4 M []0 d10.457 36.6006 m
10.457 41.8311 L
15.6855 41.8311 L
26.1426 31.3711 L
26.1426 26.1416 L
20.9131 26.1416 L
10.457 36.6006 L
s
%AI6_EndPatternLayer
) &
(0 O 0 R 0.027451 0.023529 0.14902 0 k
 0.027451 0.023529 0.14902 0 K
) @
(
%AI6_BeginPatternLayer
0 J 0 j 0.6 w 4 M []0 d41.8301 15.6836 m
41.832 10.457 L
36.6025 10.457 L
26.1436 20.9141 L
26.1436 26.1426 L
31.373 26.1426 L
41.8301 15.6836 L
f
%AI6_EndPatternLayer
) &
(0 O 0 R 0.831373 0.65098 0.580392 0.698039 k
 0.831373 0.65098 0.580392 0.698039 K
) @
(
%AI6_BeginPatternLayer
0 J 0 j 0.6 w 4 M []0 d41.8301 15.6836 m
41.832 10.457 L
36.6025 10.457 L
26.1436 20.9141 L
26.1436 26.1426 L
31.373 26.1426 L
41.8301 15.6836 L
s
%AI6_EndPatternLayer
) &
(0 O 0 R 0.027451 0.023529 0.14902 0 k
 0.027451 0.023529 0.14902 0 K
) @
(
%AI6_BeginPatternLayer
0 J 0 j 0.6 w 4 M []0 d41.832 36.6006 m
41.832 41.8311 L
47.0605 41.8311 L
57.5195 31.3711 L
57.5195 26.1416 L
52.29 26.1416 L
41.832 36.6006 L
f
%AI6_EndPatternLayer
) &
(0 O 0 R 0.831373 0.65098 0.580392 0.698039 k
 0.831373 0.65098 0.580392 0.698039 K
) @
(
%AI6_BeginPatternLayer
0 J 0 j 0.6 w 4 M []0 d41.832 36.6006 m
41.832 41.8311 L
47.0605 41.8311 L
57.5195 31.3711 L
57.5195 26.1416 L
52.29 26.1416 L
41.832 36.6006 L
s
%AI6_EndPatternLayer
) &
(0 O 0 R 0.027451 0.023529 0.14902 0 k
 0.027451 0.023529 0.14902 0 K
) @
(
%AI6_BeginPatternLayer
0 J 0 j 0.6 w 4 M []0 d73.2031 15.6836 m
73.207 10.457 L
67.9775 10.457 L
57.5195 20.9141 L
57.5195 26.1426 L
62.748 26.1426 L
73.2031 15.6836 L
f
%AI6_EndPatternLayer
) &
(0 O 0 R 0.831373 0.65098 0.580392 0.698039 k
 0.831373 0.65098 0.580392 0.698039 K
) @
(
%AI6_BeginPatternLayer
0 J 0 j 0.6 w 4 M []0 d73.2031 15.6836 m
73.207 10.457 L
67.9775 10.457 L
57.5195 20.9141 L
57.5195 26.1426 L
62.748 26.1426 L
73.2031 15.6836 L
s
%AI6_EndPatternLayer
) &
(0 O 0 R 0.027451 0.023529 0.14902 0 k
 0.027451 0.023529 0.14902 0 K
) @
(
%AI6_BeginPatternLayer
0 J 0 j 0.6 w 4 M []0 d10.457 67.9756 m
10.457 73.2051 L
15.6855 73.2051 L
26.1426 62.7451 L
26.1426 57.5166 L
20.9131 57.5166 L
10.457 67.9756 L
f
%AI6_EndPatternLayer
) &
(0 O 0 R 0.831373 0.65098 0.580392 0.698039 k
 0.831373 0.65098 0.580392 0.698039 K
) @
(
%AI6_BeginPatternLayer
0 J 0 j 0.6 w 4 M []0 d10.457 67.9756 m
10.457 73.2051 L
15.6855 73.2051 L
26.1426 62.7451 L
26.1426 57.5166 L
20.9131 57.5166 L
10.457 67.9756 L
s
%AI6_EndPatternLayer
) &
(0 O 0 R 0.027451 0.023529 0.14902 0 k
 0.027451 0.023529 0.14902 0 K
) @
(
%AI6_BeginPatternLayer
0 J 0 j 0.6 w 4 M []0 d41.8301 47.0576 m
41.832 41.8311 L
36.6025 41.8311 L
26.1436 52.2881 L
26.1436 57.5166 L
31.373 57.5166 L
41.8301 47.0576 L
f
%AI6_EndPatternLayer
) &
(0 O 0 R 0.831373 0.65098 0.580392 0.698039 k
 0.831373 0.65098 0.580392 0.698039 K
) @
(
%AI6_BeginPatternLayer
0 J 0 j 0.6 w 4 M []0 d41.8301 47.0576 m
41.832 41.8311 L
36.6025 41.8311 L
26.1436 52.2881 L
26.1436 57.5166 L
31.373 57.5166 L
41.8301 47.0576 L
s
%AI6_EndPatternLayer
) &
(0 O 0 R 0.027451 0.023529 0.14902 0 k
 0.027451 0.023529 0.14902 0 K
) @
(
%AI6_BeginPatternLayer
0 J 0 j 0.6 w 4 M []0 d41.832 67.9756 m
41.832 73.2051 L
47.0605 73.2051 L
57.5195 62.7451 L
57.5195 57.5166 L
52.29 57.5166 L
41.832 67.9756 L
f
%AI6_EndPatternLayer
) &
(0 O 0 R 0.831373 0.65098 0.580392 0.698039 k
 0.831373 0.65098 0.580392 0.698039 K
) @
(
%AI6_BeginPatternLayer
0 J 0 j 0.6 w 4 M []0 d41.832 67.9756 m
41.832 73.2051 L
47.0605 73.2051 L
57.5195 62.7451 L
57.5195 57.5166 L
52.29 57.5166 L
41.832 67.9756 L
s
%AI6_EndPatternLayer
) &
(0 O 0 R 0.027451 0.023529 0.14902 0 k
 0.027451 0.023529 0.14902 0 K
) @
(
%AI6_BeginPatternLayer
0 J 0 j 0.6 w 4 M []0 d73.2031 47.0576 m
73.207 41.8311 L
67.9775 41.8311 L
57.5195 52.2881 L
57.5195 57.5166 L
62.748 57.5166 L
73.2031 47.0576 L
f
%AI6_EndPatternLayer
) &
(0 O 0 R 0.831373 0.65098 0.580392 0.698039 k
 0.831373 0.65098 0.580392 0.698039 K
) @
(
%AI6_BeginPatternLayer
0 J 0 j 0.6 w 4 M []0 d73.2031 47.0576 m
73.207 41.8311 L
67.9775 41.8311 L
57.5195 52.2881 L
57.5195 57.5166 L
62.748 57.5166 L
73.2031 47.0576 L
s
%AI6_EndPatternLayer
) &
(0 O 0 R 0.027451 0.023529 0.14902 0 k
 0.027451 0.023529 0.14902 0 K
) @
(
%AI6_BeginPatternLayer
0 J 0 j 0.6 w 4 M []0 d20.9141 26.1426 m
26.1436 26.1426 L
26.1436 20.9141 L
15.6855 10.457 L
10.457 10.457 L
10.457 15.6846 L
20.9141 26.1426 L
f
%AI6_EndPatternLayer
) &
(0 O 0 R 0.831373 0.65098 0.580392 0.698039 k
 0.831373 0.65098 0.580392 0.698039 K
) @
(
%AI6_BeginPatternLayer
0 J 0 j 0.6 w 4 M []0 d20.9141 26.1426 m
26.1436 26.1426 L
26.1436 20.9141 L
15.6855 10.457 L
10.457 10.457 L
10.457 15.6846 L
20.9141 26.1426 L
s
%AI6_EndPatternLayer
) &
(0 O 0 R 0.027451 0.023529 0.14902 0 k
 0.027451 0.023529 0.14902 0 K
) @
(
%AI6_BeginPatternLayer
0 J 0 j 0.6 w 4 M []0 d52.29 26.1426 m
57.5195 26.1426 L
57.5195 20.9141 L
47.0605 10.457 L
41.832 10.457 L
41.832 15.6846 L
52.29 26.1426 L
f
%AI6_EndPatternLayer
) &
(0 O 0 R 0.831373 0.65098 0.580392 0.698039 k
 0.831373 0.65098 0.580392 0.698039 K
) @
(
%AI6_BeginPatternLayer
0 J 0 j 0.6 w 4 M []0 d52.29 26.1426 m
57.5195 26.1426 L
57.5195 20.9141 L
47.0605 10.457 L
41.832 10.457 L
41.832 15.6846 L
52.29 26.1426 L
s
%AI6_EndPatternLayer
) &
(0 O 0 R 0.027451 0.023529 0.14902 0 k
 0.027451 0.023529 0.14902 0 K
) @
(
%AI6_BeginPatternLayer
0 J 0 j 0.6 w 4 M []0 d31.373 26.1426 m
26.1436 26.1426 L
26.1436 31.3721 L
36.6025 41.8311 L
41.832 41.8311 L
41.832 36.6006 L
31.373 26.1426 L
f
%AI6_EndPatternLayer
) &
(0 O 0 R 0.831373 0.65098 0.580392 0.698039 k
 0.831373 0.65098 0.580392 0.698039 K
) @
(
%AI6_BeginPatternLayer
0 J 0 j 0.6 w 4 M []0 d31.373 26.1426 m
26.1436 26.1426 L
26.1436 31.3721 L
36.6025 41.8311 L
41.832 41.8311 L
41.832 36.6006 L
31.373 26.1426 L
s
%AI6_EndPatternLayer
) &
(0 O 0 R 0.027451 0.023529 0.14902 0 k
 0.027451 0.023529 0.14902 0 K
) @
(
%AI6_BeginPatternLayer
0 J 0 j 0.6 w 4 M []0 d62.748 26.1426 m
57.5195 26.1426 L
57.5195 31.3721 L
67.9775 41.8311 L
73.207 41.8311 L
73.207 36.6006 L
62.748 26.1426 L
f
%AI6_EndPatternLayer
) &
(0 O 0 R 0.831373 0.65098 0.580392 0.698039 k
 0.831373 0.65098 0.580392 0.698039 K
) @
(
%AI6_BeginPatternLayer
0 J 0 j 0.6 w 4 M []0 d62.748 26.1426 m
57.5195 26.1426 L
57.5195 31.3721 L
67.9775 41.8311 L
73.207 41.8311 L
73.207 36.6006 L
62.748 26.1426 L
s
%AI6_EndPatternLayer
) &
(0 O 0 R 0.027451 0.023529 0.14902 0 k
 0.027451 0.023529 0.14902 0 K
) @
(
%AI6_BeginPatternLayer
0 J 0 j 0.6 w 4 M []0 d20.9141 57.5166 m
26.1436 57.5166 L
26.1436 52.2881 L
15.6855 41.8311 L
10.457 41.8311 L
10.457 47.0596 L
20.9141 57.5166 L
f
%AI6_EndPatternLayer
) &
(0 O 0 R 0.831373 0.65098 0.580392 0.698039 k
 0.831373 0.65098 0.580392 0.698039 K
) @
(
%AI6_BeginPatternLayer
0 J 0 j 0.6 w 4 M []0 d20.9141 57.5166 m
26.1436 57.5166 L
26.1436 52.2881 L
15.6855 41.8311 L
10.457 41.8311 L
10.457 47.0596 L
20.9141 57.5166 L
s
%AI6_EndPatternLayer
) &
(0 O 0 R 0.027451 0.023529 0.14902 0 k
 0.027451 0.023529 0.14902 0 K
) @
(
%AI6_BeginPatternLayer
0 J 0 j 0.6 w 4 M []0 d52.29 57.5166 m
57.5195 57.5166 L
57.5195 52.2881 L
47.0605 41.8311 L
41.832 41.8311 L
41.832 47.0596 L
52.29 57.5166 L
f
%AI6_EndPatternLayer
) &
(0 O 0 R 0.831373 0.65098 0.580392 0.698039 k
 0.831373 0.65098 0.580392 0.698039 K
) @
(
%AI6_BeginPatternLayer
0 J 0 j 0.6 w 4 M []0 d52.29 57.5166 m
57.5195 57.5166 L
57.5195 52.2881 L
47.0605 41.8311 L
41.832 41.8311 L
41.832 47.0596 L
52.29 57.5166 L
s
%AI6_EndPatternLayer
) &
(0 O 0 R 0.027451 0.023529 0.14902 0 k
 0.027451 0.023529 0.14902 0 K
) @
(
%AI6_BeginPatternLayer
0 J 0 j 0.6 w 4 M []0 d31.373 57.5166 m
26.1436 57.5166 L
26.1436 62.7461 L
36.6025 73.2051 L
41.832 73.2051 L
41.832 67.9756 L
31.373 57.5166 L
f
%AI6_EndPatternLayer
) &
(0 O 0 R 0.831373 0.65098 0.580392 0.698039 k
 0.831373 0.65098 0.580392 0.698039 K
) @
(
%AI6_BeginPatternLayer
0 J 0 j 0.6 w 4 M []0 d31.373 57.5166 m
26.1436 57.5166 L
26.1436 62.7461 L
36.6025 73.2051 L
41.832 73.2051 L
41.832 67.9756 L
31.373 57.5166 L
s
%AI6_EndPatternLayer
) &
(0 O 0 R 0.027451 0.023529 0.14902 0 k
 0.027451 0.023529 0.14902 0 K
) @
(
%AI6_BeginPatternLayer
0 J 0 j 0.6 w 4 M []0 d62.748 57.5166 m
57.5195 57.5166 L
57.5195 62.7461 L
67.9775 73.2051 L
73.207 73.2051 L
73.207 67.9756 L
62.748 57.5166 L
f
%AI6_EndPatternLayer
) &
(0 O 0 R 0.831373 0.65098 0.580392 0.698039 k
 0.831373 0.65098 0.580392 0.698039 K
) @
(
%AI6_BeginPatternLayer
0 J 0 j 0.6 w 4 M []0 d62.748 57.5166 m
57.5195 57.5166 L
57.5195 62.7461 L
67.9775 73.2051 L
73.207 73.2051 L
73.207 67.9756 L
62.748 57.5166 L
s
%AI6_EndPatternLayer
) &
(0 O 0 R 0.643137 0.117647 0.113725 0 k
 0.643137 0.117647 0.113725 0 K
) @
(
%AI6_BeginPatternLayer
0 J 0 j 1 w 4 M []0 d10.457 36.6006 m
20.9141 26.1426 L
10.457 15.6846 L
0 26.1426 L
10.457 36.6006 L
f
%AI6_EndPatternLayer
) &
(0 O 0 R 0.027451 0.145098 0.764706 0 k
 0.027451 0.145098 0.764706 0 K
) @
(
%AI6_BeginPatternLayer
0 J 0 j 1 w 4 M []0 d41.832 36.6006 m
52.29 26.1426 L
41.832 15.6846 L
31.373 26.1426 L
41.832 36.6006 L
f
%AI6_EndPatternLayer
) &
(0 O 0 R 0.643137 0.117647 0.113725 0 k
 0.643137 0.117647 0.113725 0 K
) @
(
%AI6_BeginPatternLayer
0 J 0 j 1 w 4 M []0 d73.207 36.6006 m
83.665 26.1426 L
73.207 15.6846 L
62.748 26.1426 L
73.207 36.6006 L
f
%AI6_EndPatternLayer
) &
(0 O 0 R 0.015686 0.6 0.909804 0 k
 0.015686 0.6 0.909804 0 K
) @
(
%AI6_BeginPatternLayer
0 J 0 j 1 w 4 M []0 d26.1436 52.2881 m
36.6025 41.8311 L
26.1436 31.3721 L
15.6855 41.8311 L
26.1436 52.2881 L
f
57.5195 52.2881 m
67.9775 41.8311 L
57.5195 31.3721 L
47.0605 41.8311 L
57.5195 52.2881 L
f
%AI6_EndPatternLayer
) &
(0 O 0 R 0.321569 0.576471 0.258824 0.007843 k
 0.321569 0.576471 0.258824 0.007843 K
) @
(
%AI6_BeginPatternLayer
0 J 0 j 1 w 4 M []0 d26.1436 20.9141 m
36.6025 10.457 L
26.1436 0 L
15.6855 10.457 L
26.1436 20.9141 L
f
%AI6_EndPatternLayer
) &
(0 O 0 R 0.290196 0.670588 0.764706 0.152941 k
 0.290196 0.670588 0.764706 0.152941 K
) @
(
%AI6_BeginPatternLayer
0 J 0 j 1 w 4 M []0 d57.5195 20.9141 m
67.9775 10.457 L
57.5195 0 L
47.0605 10.457 L
57.5195 20.9141 L
f
%AI6_EndPatternLayer
) &
(0 O 0 R 0.337255 0.219608 0.968627 0.011765 k
 0.337255 0.219608 0.968627 0.011765 K
) @
(
%AI6_BeginPatternLayer
0 J 0 j 1 w 4 M []0 d10.457 67.9756 m
20.9141 57.5166 L
10.457 47.0596 L
0 57.5166 L
10.457 67.9756 L
f
%AI6_EndPatternLayer
) &
(0 O 0 R 0.027451 0.145098 0.764706 0 k
 0.027451 0.145098 0.764706 0 K
) @
(
%AI6_BeginPatternLayer
0 J 0 j 1 w 4 M []0 d41.832 67.9756 m
52.29 57.5166 L
41.832 47.0596 L
31.373 57.5166 L
41.832 67.9756 L
f
%AI6_EndPatternLayer
) &
(0 O 0 R 0.337255 0.219608 0.968627 0.011765 k
 0.337255 0.219608 0.968627 0.011765 K
) @
(
%AI6_BeginPatternLayer
0 J 0 j 1 w 4 M []0 d73.207 67.9756 m
83.665 57.5166 L
73.207 47.0596 L
62.748 57.5166 L
73.207 67.9756 L
f
%AI6_EndPatternLayer
) &
(0 O 0 R 0.321569 0.576471 0.258824 0.007843 k
 0.321569 0.576471 0.258824 0.007843 K
) @
(
%AI6_BeginPatternLayer
0 J 0 j 1 w 4 M []0 d26.1436 83.6631 m
36.6025 73.2051 L
26.1436 62.7461 L
15.6855 73.2051 L
26.1436 83.6631 L
f
%AI6_EndPatternLayer
) &
(0 O 0 R 0.290196 0.670588 0.764706 0.152941 k
 0.290196 0.670588 0.764706 0.152941 K
) @
(
%AI6_BeginPatternLayer
0 J 0 j 1 w 4 M []0 d57.5195 83.6631 m
67.9775 73.2051 L
57.5195 62.7461 L
47.0605 73.2051 L
57.5195 83.6631 L
f
%AI6_EndPatternLayer
) &
] E
%AI3_EndPattern
%AI3_BeginPattern: (Sternenhimmel)
(Sternenhimmel) 12.1162 23.5117 156.1152 167.5127 [
%AI3_Tile
(0 O 0 R 0.937255 0.945098 0.039216 0.003922 k
 0.937255 0.945098 0.039216 0.003922 K
) @
(
%AI6_BeginPatternLayer
0 J 0 j 1 w 4 M []0 d156.1152 23.5117 m
12.1162 23.5117 L
12.1162 167.5127 L
156.1152 167.5127 L
156.1152 23.5117 L
f
%AI6_EndPatternLayer
) &
(0 O 0 R 0.960784 0.921569 0.258824 0.168627 k
 0.960784 0.921569 0.258824 0.168627 K
) @
(
%AI6_BeginPatternLayer
0 J 0 j 1 w 4 M []0 d115.6016 163.0479 m
112.2715 154.1709 l
103.6738 152.2285 l
110.8867 147.585 l
109 137.4131 l
116.4316 143.3555 l
123.8691 138.2158 l
121.6738 148.0635 l
128.082 153.8936 l
119.7617 154.7959 l
115.6016 163.0479 l
f
123.3457 160.666 m
115.3359 155.5957 l
107.3086 159.2393 l
110.2539 151.1836 l
102.6133 144.21 l
112.123 144.4619 l
114.9512 135.876 l
119.1445 145.0508 l
127.7734 145.8359 l
121.6855 151.5752 l
123.3457 160.666 l
f
75.9346 104.7144 m
72.6055 95.8379 l
64.0068 93.8945 l
71.2197 89.252 l
69.334 79.0801 l
76.7656 85.0215 l
84.2021 79.8828 l
82.0078 89.7305 l
88.415 95.5605 l
80.0947 96.4629 l
75.9346 104.7144 l
f
83.6797 102.3325 m
75.6699 97.2617 l
67.6426 100.9058 l
70.5879 92.8496 l
62.9463 85.877 l
72.457 86.1289 l
75.2842 77.543 l
79.4785 86.7168 l
88.1064 87.502 l
82.0186 93.2422 l
83.6797 102.3325 l
f
19.4834 139.7666 m
14.4902 126.4521 l
1.58984 123.54 l
12.4102 116.5732 l
9.58203 101.3154 l
20.7305 110.2295 l
31.8848 102.5186 l
28.5938 117.292 l
38.2041 126.0371 l
25.7236 127.3906 l
19.4834 139.7666 l
f
31.1016 136.1963 m
19.0859 128.5908 l
7.04492 134.0537 l
11.4629 121.9717 l
0 111.5107 l
14.2676 111.8877 l
18.5078 99.0107 l
24.7988 112.7725 l
37.7402 113.9502 l
28.6074 122.5576 l
31.1016 136.1963 l
f
122.8164 73.0996 m
117.8223 59.7852 l
104.9219 56.873 l
115.7422 49.9063 l
112.9141 34.6484 l
124.0625 43.5625 l
135.2168 35.8516 l
131.9258 50.625 l
141.5371 59.3711 l
129.0566 60.7246 l
122.8164 73.0996 l
f
134.4336 69.5293 m
122.418 61.9238 l
110.377 67.3867 l
114.7949 55.3047 l
103.332 44.8438 l
117.5996 45.2207 l
121.8398 32.3438 l
128.1309 46.1055 l
141.0723 47.2832 l
131.9395 55.8906 l
134.4336 69.5293 l
f
67.5449 138.5596 m
65.3252 132.6416 l
59.5928 131.3467 l
64.4014 128.251 l
63.1445 121.4697 l
68.0986 125.4316 l
73.0566 122.0049 l
71.5938 128.5703 l
75.8652 132.457 l
70.3184 133.0586 l
67.5449 138.5596 l
f
72.708 136.9717 m
67.3682 133.5918 l
62.0166 136.0205 l
63.9805 130.6504 l
58.8857 126.001 l
65.2266 126.1689 l
67.1113 120.4453 l
69.9072 126.5615 l
75.6592 127.085 l
71.6006 130.9111 l
72.708 136.9717 l
f
101.3555 127.2798 m
100.1807 124.147 l
97.1445 123.4614 l
99.6904 121.8208 l
99.0254 118.231 l
101.6484 120.3286 l
104.2734 118.5132 l
103.498 121.9897 l
105.7617 124.0483 l
102.8242 124.3667 l
101.3555 127.2798 l
f
104.0801 126.4399 m
101.2598 124.6382 l
98.4199 125.9116 l
99.4736 123.0728 l
96.7861 120.5991 l
100.1445 120.7026 l
101.1563 117.6763 l
102.6211 120.9224 l
105.666 121.2134 l
103.5078 123.23 l
104.0801 126.4399 l
f
124.8555 97.1133 m
123.6797 93.9805 l
120.6445 93.2949 l
123.1914 91.6543 l
122.5254 88.0645 l
125.1484 90.1621 l
127.7734 88.3467 l
126.998 91.8232 l
129.2617 93.8818 l
126.3242 94.2002 l
124.8555 97.1133 l
f
127.5801 96.2734 m
124.7598 94.4717 l
121.9199 95.7451 l
122.9746 92.9063 l
120.2871 90.4326 l
123.6445 90.5361 l
124.6563 87.5098 l
126.1211 90.7559 l
129.166 91.0469 l
127.0078 93.0635 l
127.5801 96.2734 l
f
35.8564 64.4473 m
34.6807 61.3145 l
31.6455 60.6289 l
34.1914 58.9883 l
33.5254 55.3984 l
36.1494 57.4961 l
38.7734 55.6797 l
37.999 59.1563 l
40.2617 61.2148 l
37.3242 61.5332 l
35.8564 64.4473 l
f
38.5801 63.6074 m
35.7607 61.8047 l
32.9209 63.0781 l
33.9746 60.2402 l
31.2871 57.7656 l
34.6455 57.8691 l
35.6572 54.8438 l
37.1221 58.0898 l
40.167 58.3809 l
38.0078 60.3965 l
38.5801 63.6074 l
f
56.3896 162.7705 m
55.2139 159.6377 l
52.1787 158.9521 l
54.7246 157.3115 l
54.0586 153.7217 l
56.6826 155.8193 l
59.3066 154.0039 l
58.5322 157.4805 l
60.7949 159.5391 l
57.8574 159.8574 l
56.3896 162.7705 l
f
59.1133 161.9307 m
56.2939 160.1289 l
53.4541 161.4023 l
54.5078 158.5635 l
51.8203 156.0898 l
55.1787 156.1934 l
56.1904 153.167 l
57.6553 156.4131 l
60.7002 156.7041 l
58.541 158.7207 l
59.1133 161.9307 l
f
59.1523 38.6582 m
57.9766 35.5254 l
54.9414 34.8398 l
57.4873 33.1992 l
56.8213 29.6094 l
59.4453 31.707 l
62.0693 29.8906 l
61.2949 33.3672 l
63.5576 35.4258 l
60.6201 35.7441 l
59.1523 38.6582 l
f
61.876 37.8184 m
59.0566 36.0156 l
56.2168 37.2891 l
57.2705 34.4512 l
54.583 31.9766 l
57.9414 32.0801 l
58.9531 29.0547 l
60.418 32.3008 l
63.4629 32.5918 l
61.3037 34.6074 l
61.876 37.8184 l
f
%AI6_EndPatternLayer
) &
(0 O 0 R 0.047059 0.070588 0.478431 0 k
 0.047059 0.070588 0.478431 0 K
) @
(
%AI6_BeginPatternLayer
0 J 0 j 1 w 4 M []0 d32.9385 129.6792 m
31.5186 125.8916 l
27.8496 125.0635 l
30.9268 123.0815 l
30.1221 118.7412 l
33.293 121.2769 l
36.4658 119.084 l
35.5293 123.2856 l
38.2637 125.7734 l
34.7139 126.1582 l
32.9385 129.6792 l
f
%AI6_EndPatternLayer
) &
(0 O 0 R 0.035294 0.007843 0.152941 0 k
 0.035294 0.007843 0.152941 0 K
) @
(
%AI6_BeginPatternLayer
0 J 0 j 1 w 4 M []0 d36.2432 128.6631 m
32.8252 126.5 l
29.4004 128.0537 l
30.6572 124.6172 l
27.3965 121.6416 l
31.4551 121.749 l
32.6611 118.0859 l
34.4502 122.001 l
38.1318 122.335 l
35.5342 124.7842 l
36.2432 128.6631 l
f
%AI6_EndPatternLayer
) &
(0 O 0 R 0.047059 0.070588 0.478431 0 k
 0.047059 0.070588 0.478431 0 K
) @
(
%AI6_BeginPatternLayer
0 J 0 j 1 w 4 M []0 d142.5566 58.4941 m
141.1367 54.7051 l
137.4668 53.877 l
140.5449 51.8965 l
139.7402 47.5547 l
142.9102 50.0918 l
146.084 47.8984 l
145.1465 52.0996 l
147.8809 54.5879 l
144.332 54.9727 l
142.5566 58.4941 l
f
%AI6_EndPatternLayer
) &
(0 O 0 R 0.035294 0.007843 0.152941 0 k
 0.035294 0.007843 0.152941 0 K
) @
(
%AI6_BeginPatternLayer
0 J 0 j 1 w 4 M []0 d145.8613 57.4766 m
142.4434 55.3145 l
139.0176 56.8672 l
140.2754 53.4316 l
137.0137 50.4551 l
141.0723 50.5625 l
142.2793 46.9004 l
144.0684 50.8145 l
147.75 51.1484 l
145.1523 53.5977 l
145.8613 57.4766 l
f
%AI6_EndPatternLayer
) &
(0 O 0 R 0.047059 0.070588 0.478431 0 k
 0.047059 0.070588 0.478431 0 K
) @
(
%AI6_BeginPatternLayer
0 J 0 j 1 w 4 M []0 d12.5322 165.9844 m
10.4033 160.3027 l
4.89941 159.0605 l
9.51465 156.0879 l
8.30762 149.5771 l
13.0654 153.3809 l
17.8232 150.0918 l
16.4199 156.3936 l
20.5205 160.126 l
15.1963 160.7031 l
12.5322 165.9844 l
f
%AI6_EndPatternLayer
) &
(0 O 0 R 0.035294 0.007843 0.152941 0 k
 0.035294 0.007843 0.152941 0 K
) @
(
%AI6_BeginPatternLayer
0 J 0 j 1 w 4 M []0 d17.4893 164.46 m
12.3623 161.2158 l
7.22559 163.5459 l
9.11035 158.3916 l
4.21973 153.9277 l
10.3076 154.0889 l
12.1172 148.5947 l
14.8008 154.4668 l
20.3232 154.9678 l
16.4268 158.6416 l
17.4893 164.46 l
f
%AI6_EndPatternLayer
) &
(0 O 0 R 0.047059 0.070588 0.478431 0 k
 0.047059 0.070588 0.478431 0 K
) @
(
%AI6_BeginPatternLayer
0 J 0 j 1 w 4 M []0 d89.6924 118.96 m
87.5635 113.2783 l
82.0586 112.0361 l
86.6738 109.0635 l
85.4668 102.5527 l
90.2256 106.3564 l
94.9824 103.0674 l
93.5781 109.3691 l
97.6807 113.1016 l
92.3555 113.6787 l
89.6924 118.96 l
f
%AI6_EndPatternLayer
) &
(0 O 0 R 0.035294 0.007843 0.152941 0 k
 0.035294 0.007843 0.152941 0 K
) @
(
%AI6_BeginPatternLayer
0 J 0 j 1 w 4 M []0 d94.6484 117.4355 m
89.5225 114.1914 l
84.3848 116.5215 l
86.2695 111.3672 l
81.3789 106.9033 l
87.4678 107.0645 l
89.2764 101.5703 l
91.96 107.4424 l
97.4824 107.9434 l
93.5859 111.6172 l
94.6484 117.4355 l
f
%AI6_EndPatternLayer
) &
(0 O 0 R 0.047059 0.070588 0.478431 0 k
 0.047059 0.070588 0.478431 0 K
) @
(
%AI6_BeginPatternLayer
0 J 0 j 1 w 4 M []0 d122.6445 147.3584 m
120.8691 142.624 l
116.2832 141.5889 l
120.1289 139.1123 l
119.123 133.6865 l
123.0879 136.8564 l
127.0527 134.1152 l
125.8828 139.3672 l
129.3008 142.4766 l
124.8633 142.958 l
122.6445 147.3584 l
f
%AI6_EndPatternLayer
) &
(0 O 0 R 0.035294 0.007843 0.152941 0 k
 0.035294 0.007843 0.152941 0 K
) @
(
%AI6_BeginPatternLayer
0 J 0 j 1 w 4 M []0 d126.7754 146.0889 m
122.502 143.3848 l
118.2207 145.3271 l
119.793 141.0313 l
115.7168 137.3115 l
120.7891 137.4463 l
122.2969 132.8672 l
124.5332 137.7607 l
129.1348 138.1787 l
125.8887 141.2402 l
126.7754 146.0889 l
f
%AI6_EndPatternLayer
) &
(0 O 0 R 0.960784 0.921569 0.258824 0.168627 k
 0.960784 0.921569 0.258824 0.168627 K
) @
(
%AI6_BeginPatternLayer
0 J 0 j 1 w 4 M []0 d91.376 68.1094 m
89.1563 62.1914 l
83.4238 60.8965 l
88.2324 57.8008 l
86.9756 51.0195 l
91.9297 54.9805 l
96.8867 51.5547 l
95.4238 58.1191 l
99.6963 62.0059 l
94.1484 62.6074 l
91.376 68.1094 l
f
96.5391 66.5215 m
91.1992 63.1406 l
85.8477 65.5703 l
87.8115 60.1992 l
82.7168 55.5508 l
89.0576 55.7188 l
90.9424 49.9941 l
93.7383 56.1113 l
99.4893 56.6348 l
95.4307 60.4609 l
96.5391 66.5215 l
f
36.2021 161.1553 m
33.9824 155.2373 l
28.25 153.9424 l
33.0586 150.8467 l
31.8018 144.0654 l
36.7559 148.0273 l
41.7139 144.6006 l
40.251 151.166 l
44.5225 155.0527 l
38.9756 155.6543 l
36.2021 161.1553 l
f
41.3652 159.5674 m
36.0254 156.1875 l
30.6738 158.6162 l
32.6377 153.2461 l
27.543 148.5967 l
33.8838 148.7646 l
35.7686 143.041 l
38.5645 149.1572 l
44.3164 149.6807 l
40.2578 153.5068 l
41.3652 159.5674 l
f
146.707 172.1509 m
144.4863 166.2329 l
138.7539 164.938 l
143.5625 161.8423 l
142.3066 155.061 l
147.2598 159.0229 l
152.2188 155.5962 l
150.7559 162.1616 l
155.0273 166.0483 l
149.4805 166.6499 l
146.707 172.1509 l
f
151.8691 170.563 m
146.5293 167.1831 l
141.1777 169.6118 l
143.1426 164.2417 l
138.0469 159.5923 l
144.3887 159.7603 l
146.2734 154.0366 l
149.0684 160.1528 l
154.8203 160.6763 l
150.7617 164.5024 l
151.8691 170.563 l
f
15.9785 53.4004 m
12.6494 44.5234 l
4.0498 42.582 l
11.2627 37.9375 l
9.37793 27.7656 l
16.8096 33.709 l
24.2461 28.5684 l
22.0518 38.418 l
28.459 44.248 l
20.1387 45.1504 l
15.9785 53.4004 l
f
23.7236 51.0195 m
15.7139 45.9492 l
7.68652 49.5918 l
10.6318 41.5371 l
2.98926 34.5625 l
12.501 34.8145 l
15.3281 26.2305 l
19.5225 35.4043 l
28.1494 36.1895 l
22.0615 41.9277 l
23.7236 51.0195 l
f
%AI6_EndPatternLayer
) &
(0 O 0 R 0.047059 0.070588 0.478431 0 k
 0.047059 0.070588 0.478431 0 K
) @
(
%AI6_BeginPatternLayer
0 J 0 j 1 w 4 M []0 d79.9785 61.0605 m
77.7588 55.1426 l
72.0264 53.8477 l
76.835 50.752 l
75.5781 43.9707 l
80.5322 47.9336 l
85.4902 44.5059 l
84.0273 51.0723 l
88.2988 54.959 l
82.752 55.5605 l
79.9785 61.0605 l
f
%AI6_EndPatternLayer
) &
(0 O 0 R 0.035294 0.007843 0.152941 0 k
 0.035294 0.007843 0.152941 0 K
) @
(
%AI6_BeginPatternLayer
0 J 0 j 1 w 4 M []0 d85.1416 59.4727 m
79.8018 56.0938 l
74.4502 58.5215 l
76.4141 53.1523 l
71.3193 48.502 l
77.6602 48.6699 l
79.5449 42.9473 l
82.3408 49.0625 l
88.0928 49.5859 l
84.0342 53.4121 l
85.1416 59.4727 l
f
%AI6_EndPatternLayer
) &
(0 O 0 R 0.047059 0.070588 0.478431 0 k
 0.047059 0.070588 0.478431 0 K
) @
(
%AI6_BeginPatternLayer
0 J 0 j 1 w 4 M []0 d105.3945 186.4556 m
100.1924 172.5864 l
86.7559 169.5503 l
98.0264 162.2954 l
95.0811 146.4019 l
106.6914 155.687 l
118.3125 147.6558 l
114.8828 163.0425 l
124.8945 172.1528 l
111.8945 173.563 l
105.3945 186.4556 l
F
%AI6_EndPatternLayer
) &
(0 O 0 R 0.035294 0.007843 0.152941 0 k
 0.035294 0.007843 0.152941 0 K
) @
(
%AI6_BeginPatternLayer
0 J 0 j 1 w 4 M []0 d117.4941 182.7339 m
104.9785 174.811 l
92.4395 180.5044 l
97.042 167.9185 l
85.0996 157.022 l
99.96 157.4155 l
104.3789 143.9995 l
110.9297 158.3354 l
124.4121 159.562 l
114.9004 168.5298 l
117.4941 182.7339 l
f
%AI6_EndPatternLayer
) &
(0 O 0 R 0.047059 0.070588 0.478431 0 k
 0.047059 0.070588 0.478431 0 K
) @
(
%AI6_BeginPatternLayer
0 J 0 j 1 w 4 M []0 d105.3945 42.4551 m
100.1924 28.5859 l
86.7559 25.5508 l
98.0264 18.2949 l
95.0811 2.40234 l
106.6914 11.6875 l
118.3125 3.65625 l
114.8828 19.043 l
124.8945 28.1523 l
111.8945 29.5625 l
105.3945 42.4551 l
f
%AI6_EndPatternLayer
) &
(0 O 0 R 0.035294 0.007843 0.152941 0 k
 0.035294 0.007843 0.152941 0 K
) @
(
%AI6_BeginPatternLayer
0 J 0 j 1 w 4 M []0 d117.4941 38.7344 m
104.9785 30.8105 l
92.4395 36.5039 l
97.042 23.918 l
85.0996 13.0215 l
99.96 13.416 l
104.3789 0 l
110.9297 14.3359 l
124.4121 15.5625 l
114.9004 24.5293 l
117.4941 38.7344 l
f
%AI6_EndPatternLayer
) &
(0 O 0 R 0.047059 0.070588 0.478431 0 k
 0.047059 0.070588 0.478431 0 K
) @
(
%AI6_BeginPatternLayer
0 J 0 j 1 w 4 M []0 d16.9229 90.0479 m
13.5928 81.1709 l
4.99414 79.2285 l
12.207 74.584 l
10.3223 64.4121 l
17.7529 70.3555 l
25.1904 65.2148 l
22.9951 75.0625 l
29.4033 80.8936 l
21.083 81.7959 l
16.9229 90.0479 l
f
%AI6_EndPatternLayer
) &
(0 O 0 R 0.035294 0.007843 0.152941 0 k
 0.035294 0.007843 0.152941 0 K
) @
(
%AI6_BeginPatternLayer
0 J 0 j 1 w 4 M []0 d24.667 87.666 m
16.6572 82.5957 l
8.63086 86.2393 l
11.5762 78.1836 l
3.93359 71.209 l
13.4443 71.4609 l
16.2725 62.875 l
20.4658 72.0508 l
29.0947 72.8359 l
23.0068 78.5762 l
24.667 87.666 l
f
%AI6_EndPatternLayer
) &
(0 O 0 R 0.960784 0.921569 0.258824 0.168627 k
 0.960784 0.921569 0.258824 0.168627 K
) @
(
%AI6_BeginPatternLayer
0 J 0 j 1 w 4 M []0 d163.4824 139.7666 m
158.4902 126.4521 l
145.5898 123.54 l
156.4102 116.5732 l
153.582 101.3154 l
164.7305 110.2295 l
175.8848 102.5186 l
172.5938 117.292 l
182.2031 126.0371 l
169.7227 127.3906 l
163.4824 139.7666 l
f
175.1016 136.1963 m
163.0859 128.5908 l
151.0449 134.0537 l
155.4629 121.9717 l
144 111.5107 l
158.2676 111.8877 l
162.5078 99.0107 l
168.7988 112.7725 l
181.7402 113.9502 l
172.6074 122.5576 l
175.1016 136.1963 l
f
%AI6_EndPatternLayer
) &
(0 O 0 R 0.047059 0.070588 0.478431 0 k
 0.047059 0.070588 0.478431 0 K
) @
(
%AI6_BeginPatternLayer
0 J 0 j 1 w 4 M []0 d156.5313 165.9844 m
154.4023 160.3027 l
148.8984 159.0605 l
153.5137 156.0879 l
152.3066 149.5771 l
157.0645 153.3809 l
161.8223 150.0918 l
160.4199 156.3936 l
164.5195 160.126 l
159.1953 160.7031 l
156.5313 165.9844 l
f
%AI6_EndPatternLayer
) &
(0 O 0 R 0.035294 0.007843 0.152941 0 k
 0.035294 0.007843 0.152941 0 K
) @
(
%AI6_BeginPatternLayer
0 J 0 j 1 w 4 M []0 d161.4883 164.46 m
156.3613 161.2158 l
151.2246 163.5459 l
153.1094 158.3916 l
148.2188 153.9277 l
154.3066 154.0889 l
156.1172 148.5947 l
158.8008 154.4668 l
164.3223 154.9678 l
160.4258 158.6416 l
161.4883 164.46 l
f
%AI6_EndPatternLayer
) &
(0 O 0 R 0.960784 0.921569 0.258824 0.168627 k
 0.960784 0.921569 0.258824 0.168627 K
) @
(
%AI6_BeginPatternLayer
0 J 0 j 1 w 4 M []0 d159.9785 53.4004 m
156.6484 44.5234 l
148.0488 42.582 l
155.2617 37.9375 l
153.377 27.7656 l
160.8086 33.709 l
168.2461 28.5684 l
166.0508 38.418 l
172.459 44.248 l
164.1387 45.1504 l
159.9785 53.4004 l
f
167.7227 51.0195 m
159.7129 45.9492 l
151.6855 49.5918 l
154.6309 41.5371 l
146.9883 34.5625 l
156.5 34.8145 l
159.3281 26.2305 l
163.5215 35.4043 l
172.1484 36.1895 l
166.0605 41.9277 l
167.7227 51.0195 l
f
%AI6_EndPatternLayer
) &
(0 O 0 R 0.047059 0.070588 0.478431 0 k
 0.047059 0.070588 0.478431 0 K
) @
(
%AI6_BeginPatternLayer
0 J 0 j 1 w 4 M []0 d160.9219 90.0479 m
157.5918 81.1709 l
148.9941 79.2285 l
156.207 74.584 l
154.3223 64.4121 l
161.752 70.3555 l
169.1895 65.2148 l
166.9941 75.0625 l
173.4023 80.8936 l
165.082 81.7959 l
160.9219 90.0479 l
f
%AI6_EndPatternLayer
) &
(0 O 0 R 0.035294 0.007843 0.152941 0 k
 0.035294 0.007843 0.152941 0 K
) @
(
%AI6_BeginPatternLayer
0 J 0 j 1 w 4 M []0 d168.666 87.666 m
160.6563 82.5957 l
152.6309 86.2393 l
155.5762 78.1836 l
147.9336 71.209 l
157.4434 71.4609 l
160.2715 62.875 l
164.4648 72.0508 l
173.0938 72.8359 l
167.0059 78.5762 l
168.666 87.666 l
f
%AI6_EndPatternLayer
) &
(0 O 0 R 0.047059 0.070588 0.478431 0 k
 0.047059 0.070588 0.478431 0 K
) @
(
%AI6_BeginPatternLayer
0 J 0 j 1 w 4 M []0 d43.4912 155.3271 m
42.0713 151.5396 l
38.4023 150.7114 l
41.4795 148.7295 l
40.6748 144.3892 l
43.8457 146.9248 l
47.0186 144.7319 l
46.082 148.9336 l
48.8164 151.4214 l
45.2666 151.8062 l
43.4912 155.3271 l
f
%AI6_EndPatternLayer
) &
(0 O 0 R 0.035294 0.007843 0.152941 0 k
 0.035294 0.007843 0.152941 0 K
) @
(
%AI6_BeginPatternLayer
0 J 0 j 1 w 4 M []0 d46.7959 154.311 m
43.3779 152.1479 l
39.9531 153.7017 l
41.21 150.2651 l
37.9492 147.2896 l
42.0078 147.397 l
43.2139 143.7339 l
45.0029 147.6489 l
48.6846 147.9829 l
46.0869 150.4321 l
46.7959 154.311 l
f
%AI6_EndPatternLayer
) &
(0 O 0 R 0.047059 0.070588 0.478431 0 k
 0.047059 0.070588 0.478431 0 K
) @
(
%AI6_BeginPatternLayer
0 J 0 j 1 w 4 M []0 d65.4951 172.0752 m
64.0752 168.2876 l
60.4063 167.4595 l
63.4834 165.4775 l
62.6787 161.1372 l
65.8496 163.6729 l
69.0225 161.48 l
68.0859 165.6816 l
70.8203 168.1694 l
67.2705 168.5542 l
65.4951 172.0752 l
f
%AI6_EndPatternLayer
) &
(0 O 0 R 0.035294 0.007843 0.152941 0 k
 0.035294 0.007843 0.152941 0 K
) @
(
%AI6_BeginPatternLayer
0 J 0 j 1 w 4 M []0 d68.7998 171.0591 m
65.3818 168.896 l
61.957 170.4497 l
63.2139 167.0132 l
59.9531 164.0376 l
64.0117 164.145 l
65.2178 160.4819 l
67.0068 164.397 l
70.6885 164.731 l
68.0908 167.1802 l
68.7998 171.0591 l
f
%AI6_EndPatternLayer
) &
(0 O 0 R 0.960784 0.921569 0.258824 0.168627 k
 0.960784 0.921569 0.258824 0.168627 K
) @
(
%AI6_BeginPatternLayer
0 J 0 j 1 w 4 M []0 d146.707 28.1504 m
144.4863 22.2324 l
138.7539 20.9375 l
143.5625 17.8418 l
142.3066 11.0605 l
147.2598 15.0234 l
152.2188 11.5957 l
150.7559 18.1621 l
155.0273 22.0488 l
149.4805 22.6504 l
146.707 28.1504 l
f
151.8691 26.5625 m
146.5293 23.1836 l
141.1777 25.6113 l
143.1426 20.2422 l
138.0469 15.5918 l
144.3887 15.7598 l
146.2734 10.0371 l
149.0684 16.1523 l
154.8203 16.6758 l
150.7617 20.502 l
151.8691 26.5625 l
f
%AI6_EndPatternLayer
) &
(0 O 0 R 0.047059 0.070588 0.478431 0 k
 0.047059 0.070588 0.478431 0 K
) @
(
%AI6_BeginPatternLayer
0 J 0 j 1 w 4 M []0 d65.4951 28.0742 m
64.0752 24.2871 l
60.4063 23.459 l
63.4834 21.4766 l
62.6787 17.1367 l
65.8496 19.6719 l
69.0225 17.4805 l
68.0859 21.6816 l
70.8203 24.1699 l
67.2705 24.5547 l
65.4951 28.0742 l
f
%AI6_EndPatternLayer
) &
(0 O 0 R 0.035294 0.007843 0.152941 0 k
 0.035294 0.007843 0.152941 0 K
) @
(
%AI6_BeginPatternLayer
0 J 0 j 1 w 4 M []0 d68.7998 27.0586 m
65.3818 24.8965 l
61.957 26.4492 l
63.2139 23.0137 l
59.9531 20.0371 l
64.0117 20.1445 l
65.2178 16.4824 l
67.0068 20.3965 l
70.6885 20.7305 l
68.0908 23.1797 l
68.7998 27.0586 l
f
82.1064 150.958 m
81.166 148.4517 l
78.7373 147.9033 l
80.7744 146.5913 l
80.2412 143.7192 l
82.3408 145.397 l
84.4404 143.9453 l
83.8203 146.7266 l
85.6309 148.373 l
83.2803 148.6279 l
82.1064 150.958 l
f
%AI6_EndPatternLayer
) &
(0 O 0 R 0.047059 0.070588 0.478431 0 k
 0.047059 0.070588 0.478431 0 K
) @
(
%AI6_BeginPatternLayer
0 J 0 j 1 w 4 M []0 d84.2852 150.2866 m
82.0293 148.8452 l
79.7578 149.8638 l
80.6006 147.5923 l
78.4512 145.6138 l
81.1377 145.6968 l
81.9473 143.2759 l
83.1191 145.8726 l
85.5547 146.105 l
83.8271 147.7183 l
84.2852 150.2866 l
f
%AI6_EndPatternLayer
) &
(0 O 0 R 0.035294 0.007843 0.152941 0 k
 0.035294 0.007843 0.152941 0 K
) @
(
%AI6_BeginPatternLayer
0 J 0 j 1 w 4 M []0 d91.4395 80.291 m
90.499 77.7852 l
88.0713 77.2363 l
90.1074 75.9238 l
89.5742 73.0527 l
91.6729 74.7305 l
93.7725 73.2793 l
93.1523 76.0605 l
94.9639 77.707 l
92.6143 77.9609 l
91.4395 80.291 l
f
%AI6_EndPatternLayer
) &
(0 O 0 R 0.047059 0.070588 0.478431 0 k
 0.047059 0.070588 0.478431 0 K
) @
(
%AI6_BeginPatternLayer
0 J 0 j 1 w 4 M []0 d93.6182 79.6191 m
91.3623 78.1777 l
89.0908 79.1973 l
89.9336 76.9258 l
87.7842 74.9473 l
90.4707 75.0293 l
91.2803 72.6094 l
92.4512 75.2051 l
94.8867 75.4375 l
93.1602 77.0508 l
93.6182 79.6191 l
f
%AI6_EndPatternLayer
) &
(0 O 0 R 0.035294 0.007843 0.152941 0 k
 0.035294 0.007843 0.152941 0 K
) @
(
%AI6_BeginPatternLayer
0 J 0 j 1 w 4 M []0 d52.3281 63.1484 m
51.3877 60.6426 l
48.96 60.0938 l
50.9961 58.7813 l
50.4629 55.9102 l
52.5625 57.5879 l
54.6621 56.1367 l
54.042 58.918 l
55.8525 60.5645 l
53.5029 60.8184 l
52.3281 63.1484 l
f
%AI6_EndPatternLayer
) &
(0 O 0 R 0.047059 0.070588 0.478431 0 k
 0.047059 0.070588 0.478431 0 K
) @
(
%AI6_BeginPatternLayer
0 J 0 j 1 w 4 M []0 d54.5068 62.4766 m
52.251 61.0352 l
49.9795 62.0547 l
50.8223 59.7832 l
48.6729 57.8047 l
51.3594 57.8867 l
52.1689 55.4668 l
53.3408 58.0625 l
55.7764 58.2949 l
54.0498 59.9082 l
54.5068 62.4766 l
f
%AI6_EndPatternLayer
) &
(0 O 0 R 0.035294 0.007843 0.152941 0 k
 0.035294 0.007843 0.152941 0 K
) @
(
%AI6_BeginPatternLayer
0 J 0 j 1 w 4 M []0 d20.6611 41.1484 m
19.7207 38.6426 l
17.293 38.0938 l
19.3291 36.7813 l
18.7959 33.9102 l
20.8955 35.5879 l
22.9951 34.1367 l
22.375 36.918 l
24.1855 38.5645 l
21.8359 38.8184 l
20.6611 41.1484 l
f
%AI6_EndPatternLayer
) &
(0 O 0 R 0.047059 0.070588 0.478431 0 k
 0.047059 0.070588 0.478431 0 K
) @
(
%AI6_BeginPatternLayer
0 J 0 j 1 w 4 M []0 d22.8398 40.4766 m
20.584 39.0352 l
18.3125 40.0547 l
19.1553 37.7832 l
17.0059 35.8047 l
19.6924 35.8867 l
20.502 33.4668 l
21.6738 36.0625 l
24.1094 36.2949 l
22.3828 37.9082 l
22.8398 40.4766 l
f
%AI6_EndPatternLayer
) &
(0 O 0 R 0.035294 0.007843 0.152941 0 k
 0.035294 0.007843 0.152941 0 K
) @
(
%AI6_BeginPatternLayer
0 J 0 j 1 w 4 M []0 d19.3672 102.0518 m
18.4268 99.5449 l
15.999 98.9971 l
18.0352 97.6855 l
17.502 94.8125 l
19.6016 96.4902 l
21.7012 95.0391 l
21.0811 97.8203 l
22.8916 99.4668 l
20.542 99.7217 l
19.3672 102.0518 l
f
%AI6_EndPatternLayer
) &
(0 O 0 R 0.047059 0.070588 0.478431 0 k
 0.047059 0.070588 0.478431 0 K
) @
(
%AI6_BeginPatternLayer
0 J 0 j 1 w 4 M []0 d21.5459 101.3804 m
19.29 99.9395 l
17.0186 100.9575 l
17.8613 98.6855 l
15.7119 96.707 l
18.3984 96.791 l
19.208 94.3691 l
20.3799 96.9668 l
22.8154 97.1992 l
21.0889 98.8125 l
21.5459 101.3804 l
f
%AI6_EndPatternLayer
) &
(0 O 0 R 0.035294 0.007843 0.152941 0 k
 0.035294 0.007843 0.152941 0 K
) @
(
%AI6_BeginPatternLayer
0 J 0 j 1 w 4 M []0 d42.7139 40.3477 m
41.5381 37.2148 l
38.5029 36.5293 l
41.0498 34.8887 l
40.3838 31.2988 l
43.0068 33.3965 l
45.6318 31.582 l
44.8564 35.0586 l
47.1201 37.1172 l
44.1826 37.4355 l
42.7139 40.3477 l
f
%AI6_EndPatternLayer
) &
(0 O 0 R 0.047059 0.070588 0.478431 0 k
 0.047059 0.070588 0.478431 0 K
) @
(
%AI6_BeginPatternLayer
0 J 0 j 1 w 4 M []0 d45.4385 39.5078 m
42.6182 37.707 l
39.7783 38.9805 l
40.833 36.1406 l
38.1455 33.668 l
41.5029 33.7715 l
42.5146 30.7441 l
43.9795 33.9902 l
47.0244 34.2813 l
44.8662 36.2988 l
45.4385 39.5078 l
f
%AI6_EndPatternLayer
) &
(0 O 0 R 0.035294 0.007843 0.152941 0 k
 0.035294 0.007843 0.152941 0 K
) @
(
%AI6_BeginPatternLayer
0 J 0 j 1 w 4 M []0 d145.1484 145.4951 m
143.9727 142.3623 l
140.9375 141.6768 l
143.4844 140.0361 l
142.8184 136.4463 l
145.4414 138.5439 l
148.0664 136.7285 l
147.291 140.2051 l
149.5547 142.2637 l
146.6172 142.582 l
145.1484 145.4951 l
f
%AI6_EndPatternLayer
) &
(0 O 0 R 0.047059 0.070588 0.478431 0 k
 0.047059 0.070588 0.478431 0 K
) @
(
%AI6_BeginPatternLayer
0 J 0 j 1 w 4 M []0 d147.873 144.6553 m
145.0527 142.8535 l
142.2129 144.127 l
143.2676 141.2881 l
140.5801 138.8145 l
143.9375 138.918 l
144.9492 135.8916 l
146.4141 139.1377 l
149.459 139.4287 l
147.3008 141.4453 l
147.873 144.6553 l
f
%AI6_EndPatternLayer
) &
(0 O 0 R 0.035294 0.007843 0.152941 0 k
 0.035294 0.007843 0.152941 0 K
) @
(
%AI6_BeginPatternLayer
0 J 0 j 1 w 4 M []0 d49.0967 110.0874 m
48.1563 107.5811 l
45.7285 107.0327 l
47.7646 105.7207 l
47.2314 102.8486 l
49.3311 104.5264 l
51.4307 103.0747 l
50.8115 105.856 l
52.6211 107.5024 l
50.2715 107.7573 l
49.0967 110.0874 l
f
%AI6_EndPatternLayer
) &
(0 O 0 R 0.047059 0.070588 0.478431 0 k
 0.047059 0.070588 0.478431 0 K
) @
(
%AI6_BeginPatternLayer
0 J 0 j 1 w 4 M []0 d51.2764 109.416 m
49.0205 107.9746 l
46.749 108.9932 l
47.5908 106.7217 l
45.4414 104.7432 l
48.1279 104.8262 l
48.9375 102.4053 l
50.1094 105.002 l
52.5459 105.2344 l
50.8184 106.8477 l
51.2764 109.416 l
f
%AI6_EndPatternLayer
) &
(0 O 0 R 0.113725 0.192157 0.921569 0 k
 0.113725 0.192157 0.921569 0 K
) @
(
%AI6_BeginPatternLayer
0 J 0 j 1 w 4 M []0 d137.957 121.3267 m
137.3984 119.8364 l
135.9531 119.5103 l
137.1641 118.7305 l
136.8477 117.0229 l
138.0957 118.02 l
139.3438 117.1572 l
138.9766 118.8105 l
140.0527 119.7896 l
138.6543 119.9409 l
137.957 121.3267 l
f
%AI6_EndPatternLayer
) &
(0 O 0 R 0.047059 0.070588 0.478431 0 k
 0.047059 0.070588 0.478431 0 K
) @
(
%AI6_BeginPatternLayer
0 J 0 j 1 w 4 M []0 d139.0059 121.0923 m
137.793 120.061 l
136.373 120.479 l
137.0527 119.2085 l
135.9453 117.8696 l
137.5195 118.1353 l
138.1914 116.7739 l
138.6738 118.397 l
140.0898 118.73 l
138.9434 119.5415 l
139.0059 121.0923 l
f
%AI6_EndPatternLayer
) &
(0 O 0 R 0.113725 0.192157 0.921569 0 k
 0.113725 0.192157 0.921569 0 K
) @
(
%AI6_BeginPatternLayer
0 J 0 j 1 w 4 M []0 d39.582 101.3682 m
39.0234 99.8779 l
37.5791 99.5518 l
38.79 98.7715 l
38.4736 97.0645 l
39.7217 98.0615 l
40.9697 97.1992 l
40.6016 98.8516 l
41.6777 99.8311 l
40.2803 99.9824 l
39.582 101.3682 l
f
%AI6_EndPatternLayer
) &
(0 O 0 R 0.047059 0.070588 0.478431 0 k
 0.047059 0.070588 0.478431 0 K
) @
(
%AI6_BeginPatternLayer
0 J 0 j 1 w 4 M []0 d40.6318 101.1338 m
39.4189 100.1025 l
37.999 100.5205 l
38.6777 99.25 l
37.5703 97.9111 l
39.1455 98.1768 l
39.8174 96.8154 l
40.2988 98.4385 l
41.7158 98.7715 l
40.5684 99.583 l
40.6318 101.1338 l
f
%AI6_EndPatternLayer
) &
(0 O 0 R 0.113725 0.192157 0.921569 0 k
 0.113725 0.192157 0.921569 0 K
) @
(
%AI6_BeginPatternLayer
0 J 0 j 1 w 4 M []0 d37.582 70.0352 m
37.0234 68.5449 l
35.5791 68.2188 l
36.79 67.4395 l
36.4736 65.7305 l
37.7217 66.7285 l
38.9697 65.8652 l
38.6016 67.5195 l
39.6777 68.498 l
38.2803 68.6484 l
37.582 70.0352 l
f
%AI6_EndPatternLayer
) &
(0 O 0 R 0.047059 0.070588 0.478431 0 k
 0.047059 0.070588 0.478431 0 K
) @
(
%AI6_BeginPatternLayer
0 J 0 j 1 w 4 M []0 d38.6318 69.8008 m
37.4189 68.7695 l
35.999 69.1875 l
36.6777 67.916 l
35.5703 66.5781 l
37.1455 66.8438 l
37.8174 65.4824 l
38.2988 67.1055 l
39.7158 67.4375 l
38.5684 68.25 l
38.6318 69.8008 l
f
%AI6_EndPatternLayer
) &
(0 O 0 R 0.113725 0.192157 0.921569 0 k
 0.113725 0.192157 0.921569 0 K
) @
(
%AI6_BeginPatternLayer
0 J 0 j 1 w 4 M []0 d70.624 133.6597 m
70.0654 132.1694 l
68.6211 131.8433 l
69.832 131.0635 l
69.5156 129.356 l
70.7637 130.353 l
72.0117 129.4902 l
71.6436 131.1436 l
72.7197 132.1226 l
71.3223 132.2739 l
70.624 133.6597 l
f
%AI6_EndPatternLayer
) &
(0 O 0 R 0.047059 0.070588 0.478431 0 k
 0.047059 0.070588 0.478431 0 K
) @
(
%AI6_BeginPatternLayer
0 J 0 j 1 w 4 M []0 d71.6738 133.4253 m
70.4609 132.394 l
69.041 132.812 l
69.7197 131.5415 l
68.6123 130.2026 l
70.1875 130.4683 l
70.8594 129.1069 l
71.3408 130.73 l
72.7578 131.063 l
71.6104 131.8745 l
71.6738 133.4253 l
f
%AI6_EndPatternLayer
) &
(0 O 0 R 0.113725 0.192157 0.921569 0 k
 0.113725 0.192157 0.921569 0 K
) @
(
%AI6_BeginPatternLayer
0 J 0 j 1 w 4 M []0 d108.957 90.9932 m
108.3984 89.5029 l
106.9531 89.1768 l
108.1641 88.3965 l
107.8477 86.6895 l
109.0957 87.6865 l
110.3438 86.8242 l
109.9766 88.4766 l
111.0527 89.4561 l
109.6543 89.6074 l
108.957 90.9932 l
f
%AI6_EndPatternLayer
) &
(0 O 0 R 0.047059 0.070588 0.478431 0 k
 0.047059 0.070588 0.478431 0 K
) @
(
%AI6_BeginPatternLayer
0 J 0 j 1 w 4 M []0 d110.0059 90.7588 m
108.793 89.7275 l
107.373 90.1455 l
108.0527 88.875 l
106.9453 87.5361 l
108.5195 87.8018 l
109.1914 86.4404 l
109.6738 88.0635 l
111.0898 88.3965 l
109.9434 89.208 l
110.0059 90.7588 l
f
%AI6_EndPatternLayer
) &
(0 O 0 R 0.062745 0.011765 0.364706 0 k
 0.062745 0.011765 0.364706 0 K
) @
(
%AI6_BeginPatternLayer
0 J 0 j 1 w 4 M []0 d144.7988 39.2598 m
144.4023 38.2031 l
143.3789 37.9727 l
144.2363 37.4199 l
144.0117 36.209 l
144.8965 36.916 l
145.7813 36.3047 l
145.5215 37.4766 l
146.2832 38.1699 l
145.293 38.2773 l
144.7988 39.2598 l
f
%AI6_EndPatternLayer
) &
(0 O 0 R 0 0 0 0 k
 0 0 0 0 K
) @
(
%AI6_BeginPatternLayer
0 J 0 j 1 w 4 M []0 d145.7598 38.9297 m
144.7813 38.3711 l
143.8457 38.8457 l
144.1523 37.8711 l
143.207 37.084 l
144.3398 37.0625 l
144.6309 36.0273 l
145.1777 37.0957 l
146.207 37.1426 l
145.5137 37.8594 l
145.7598 38.9297 l
f
%AI6_EndPatternLayer
) &
(0 O 0 R 0.062745 0.011765 0.364706 0 k
 0.062745 0.011765 0.364706 0 K
) @
(
%AI6_BeginPatternLayer
0 J 0 j 1 w 4 M []0 d69.1855 115.7788 m
68.79 114.7231 l
67.7666 114.4922 l
68.624 113.939 l
68.3994 112.729 l
69.2842 113.436 l
70.1689 112.8242 l
69.9082 113.9961 l
70.6709 114.6899 l
69.6807 114.7974 l
69.1855 115.7788 l
f
%AI6_EndPatternLayer
) &
(0 O 0 R 0 0 0 0 k
 0 0 0 0 K
) @
(
%AI6_BeginPatternLayer
0 J 0 j 1 w 4 M []0 d70.1465 115.4502 m
69.168 114.8906 l
68.2334 115.3652 l
68.54 114.3916 l
67.5947 113.6035 l
68.7275 113.583 l
69.0176 112.5479 l
69.5645 113.6162 l
70.5947 113.6631 l
69.9014 114.3789 l
70.1465 115.4502 l
f
%AI6_EndPatternLayer
) &
(0 O 0 R 0.062745 0.011765 0.364706 0 k
 0.062745 0.011765 0.364706 0 K
) @
(
%AI6_BeginPatternLayer
0 J 0 j 1 w 4 M []0 d18.0244 145.2852 m
17.6289 144.2295 l
16.6055 143.9985 l
17.4629 143.4453 l
17.2383 142.2354 l
18.123 142.9424 l
19.0078 142.3306 l
18.7471 143.5024 l
19.5098 144.1963 l
18.5195 144.3037 l
18.0244 145.2852 l
f
%AI6_EndPatternLayer
) &
(0 O 0 R 0 0 0 0 k
 0 0 0 0 K
) @
(
%AI6_BeginPatternLayer
0 J 0 j 1 w 4 M []0 d18.9854 144.9565 m
18.0068 144.397 l
17.0723 144.8716 l
17.3789 143.8979 l
16.4336 143.1099 l
17.5664 143.0894 l
17.8564 142.0542 l
18.4033 143.1226 l
19.4336 143.1694 l
18.7402 143.8853 l
18.9854 144.9565 l
f
%AI6_EndPatternLayer
) &
(0 O 0 R 0.062745 0.011765 0.364706 0 k
 0.062745 0.011765 0.364706 0 K
) @
(
%AI6_BeginPatternLayer
0 J 0 j 1 w 4 M []0 d34.0459 166.3921 m
33.6504 165.3364 l
32.627 165.1055 l
33.4844 164.5522 l
33.2598 163.3423 l
34.1445 164.0493 l
35.0293 163.4375 l
34.7686 164.6094 l
35.5313 165.3032 l
34.541 165.4106 l
34.0459 166.3921 l
f
%AI6_EndPatternLayer
) &
(0 O 0 R 0 0 0 0 k
 0 0 0 0 K
) @
(
%AI6_BeginPatternLayer
0 J 0 j 1 w 4 M []0 d35.0068 166.0635 m
34.0283 165.5039 l
33.0938 165.9785 l
33.4004 165.0049 l
32.4551 164.2168 l
33.5879 164.1963 l
33.8779 163.1611 l
34.4248 164.2295 l
35.4551 164.2764 l
34.7617 164.9922 l
35.0068 166.0635 l
f
%AI6_EndPatternLayer
) &
(0 O 0 R 0.062745 0.011765 0.364706 0 k
 0.062745 0.011765 0.364706 0 K
) @
(
%AI6_BeginPatternLayer
0 J 0 j 1 w 4 M []0 d138.0254 71.2852 m
137.6289 70.2285 l
136.6055 69.998 l
137.4629 69.4453 l
137.2383 68.2344 l
138.123 68.9414 l
139.0078 68.3301 l
138.748 69.502 l
139.5098 70.1953 l
138.5195 70.3027 l
138.0254 71.2852 l
f
%AI6_EndPatternLayer
) &
(0 O 0 R 0 0 0 0 k
 0 0 0 0 K
) @
(
%AI6_BeginPatternLayer
0 J 0 j 1 w 4 M []0 d138.9863 70.957 m
138.0078 70.3965 l
137.0723 70.8711 l
137.3789 69.8984 l
136.4336 69.1094 l
137.5664 69.0898 l
137.8574 68.0547 l
138.4043 69.123 l
139.4336 69.1699 l
138.7402 69.8848 l
138.9863 70.957 l
f
%AI6_EndPatternLayer
) &
(0 O 0 R 0.062745 0.011765 0.364706 0 k
 0.062745 0.011765 0.364706 0 K
) @
(
%AI6_BeginPatternLayer
0 J 0 j 1 w 4 M []0 d37.3584 46.6172 m
36.9629 45.5625 l
35.9395 45.332 l
36.7969 44.7773 l
36.5723 43.5684 l
37.457 44.2754 l
38.3418 43.6641 l
38.0811 44.8359 l
38.8438 45.5293 l
37.8535 45.6367 l
37.3584 46.6172 l
f
%AI6_EndPatternLayer
) &
(0 O 0 R 0 0 0 0 k
 0 0 0 0 K
) @
(
%AI6_BeginPatternLayer
0 J 0 j 1 w 4 M []0 d38.3193 46.2891 m
37.3408 45.7305 l
36.4063 46.2051 l
36.7129 45.2305 l
35.7676 44.4434 l
36.9004 44.4219 l
37.1904 43.3867 l
37.7373 44.4551 l
38.7676 44.502 l
38.0742 45.2188 l
38.3193 46.2891 l
f
%AI6_EndPatternLayer
) &
(0 O 0 R 0.062745 0.011765 0.364706 0 k
 0.062745 0.011765 0.364706 0 K
) @
(
%AI6_BeginPatternLayer
0 J 0 j 1 w 4 M []0 d51.6914 143.9517 m
51.2959 142.896 l
50.2725 142.665 l
51.1299 142.1118 l
50.9053 140.9019 l
51.79 141.6089 l
52.6748 140.9971 l
52.4141 142.1689 l
53.1768 142.8628 l
52.1865 142.9702 l
51.6914 143.9517 l
f
%AI6_EndPatternLayer
) &
(0 O 0 R 0 0 0 0 k
 0 0 0 0 K
) @
(
%AI6_BeginPatternLayer
0 J 0 j 1 w 4 M []0 d52.6523 143.623 m
51.6738 143.0635 l
50.7393 143.5381 l
51.0459 142.5645 l
50.1006 141.7764 l
51.2334 141.7559 l
51.5234 140.7207 l
52.0703 141.7891 l
53.1006 141.8359 l
52.4072 142.5518 l
52.6523 143.623 l
f
%AI6_EndPatternLayer
) &
(0 O 0 R 0.062745 0.011765 0.364706 0 k
 0.062745 0.011765 0.364706 0 K
) @
(
%AI6_BeginPatternLayer
0 J 0 j 1 w 4 M []0 d68.5801 33.8086 m
68.085 32.4883 l
66.8057 32.1992 l
67.8789 31.5078 l
67.5977 29.9961 l
68.7041 30.8789 l
69.8096 30.1152 l
69.4834 31.5801 l
70.4365 32.4473 l
69.1982 32.5801 l
68.5801 33.8086 l
f
%AI6_EndPatternLayer
) &
(0 O 0 R 0 0 0 0 k
 0 0 0 0 K
) @
(
%AI6_BeginPatternLayer
0 J 0 j 1 w 4 M []0 d69.7813 33.3965 m
68.5576 32.6973 l
67.3887 33.291 l
67.7734 32.0742 l
66.5908 31.0879 l
68.0068 31.0625 l
68.3701 29.7695 l
69.0537 31.1055 l
70.3408 31.1641 l
69.4746 32.0586 l
69.7813 33.3965 l
f
%AI6_EndPatternLayer
) &
(0 O 0 R 0.062745 0.011765 0.364706 0 k
 0.062745 0.011765 0.364706 0 K
) @
(
%AI6_BeginPatternLayer
0 J 0 j 1 w 4 M []0 d110.1992 65.0996 m
109.7051 63.7793 l
108.4258 63.4922 l
109.498 62.8008 l
109.2168 61.2871 l
110.3242 62.1719 l
111.4297 61.4063 l
111.1035 62.8711 l
112.0566 63.7383 l
110.8184 63.873 l
110.1992 65.0996 l
f
%AI6_EndPatternLayer
) &
(0 O 0 R 0 0 0 0 k
 0 0 0 0 K
) @
(
%AI6_BeginPatternLayer
0 J 0 j 1 w 4 M []0 d111.4004 64.6895 m
110.1777 63.9902 l
109.0078 64.582 l
109.3926 63.3652 l
108.2109 62.3809 l
109.627 62.3555 l
109.9902 61.0605 l
110.6738 62.3965 l
111.9609 62.4551 l
111.0938 63.3496 l
111.4004 64.6895 l
f
%AI6_EndPatternLayer
) &
(0 O 0 R 0.062745 0.011765 0.364706 0 k
 0.062745 0.011765 0.364706 0 K
) @
(
%AI6_BeginPatternLayer
0 J 0 j 1 w 4 M []0 d132.9121 157.3745 m
132.418 156.0542 l
131.1387 155.7661 l
132.2109 155.0747 l
131.9297 153.562 l
133.0371 154.4458 l
134.1426 153.6812 l
133.8164 155.146 l
134.7695 156.0132 l
133.5313 156.147 l
132.9121 157.3745 l
f
%AI6_EndPatternLayer
) &
(0 O 0 R 0 0 0 0 k
 0 0 0 0 K
) @
(
%AI6_BeginPatternLayer
0 J 0 j 1 w 4 M []0 d134.1133 156.9634 m
132.8906 156.2642 l
131.7207 156.8569 l
132.1055 155.6401 l
130.9238 154.6548 l
132.3398 154.6294 l
132.7031 153.3354 l
133.3867 154.6714 l
134.6738 154.73 l
133.8066 155.6245 l
134.1133 156.9634 l
f
%AI6_EndPatternLayer
) &
(0 O 0 R 0.062745 0.011765 0.364706 0 k
 0.062745 0.011765 0.364706 0 K
) @
(
%AI6_BeginPatternLayer
0 J 0 j 1 w 4 M []0 d71.0693 87.4355 m
70.5742 86.1152 l
69.2949 85.8281 l
70.3682 85.1367 l
70.0869 83.623 l
71.1934 84.5078 l
72.2988 83.7422 l
71.9727 85.207 l
72.9258 86.0742 l
71.6875 86.209 l
71.0693 87.4355 l
f
%AI6_EndPatternLayer
) &
(0 O 0 R 0 0 0 0 k
 0 0 0 0 K
) @
(
%AI6_BeginPatternLayer
0 J 0 j 1 w 4 M []0 d72.2705 87.0254 m
71.0469 86.3262 l
69.8779 86.918 l
70.2627 85.7012 l
69.0801 84.7168 l
70.4961 84.6914 l
70.8594 83.3965 l
71.543 84.7324 l
72.8301 84.791 l
71.9639 85.6855 l
72.2705 87.0254 l
f
%AI6_EndPatternLayer
) &
(0 O 0 R 0.062745 0.011765 0.364706 0 k
 0.062745 0.011765 0.364706 0 K
) @
(
%AI6_BeginPatternLayer
0 J 0 j 1 w 4 M []0 d21.3193 114.7842 m
20.9229 113.7285 l
19.9004 113.4976 l
20.7578 112.9443 l
20.5332 111.7344 l
21.418 112.4414 l
22.3027 111.8296 l
22.042 113.0015 l
22.8047 113.6953 l
21.8145 113.8027 l
21.3193 114.7842 l
f
%AI6_EndPatternLayer
) &
(0 O 0 R 0 0 0 0 k
 0 0 0 0 K
) @
(
%AI6_BeginPatternLayer
0 J 0 j 1 w 4 M []0 d22.2803 114.4556 m
21.3018 113.896 l
20.3662 114.3706 l
20.6738 113.397 l
19.7285 112.6089 l
20.8613 112.5884 l
21.1514 111.5532 l
21.6982 112.6216 l
22.7285 112.6685 l
22.0352 113.3843 l
22.2803 114.4556 l
f
%AI6_EndPatternLayer
) &
(0 O 0 R 0.035294 0.007843 0.152941 0 k
 0.035294 0.007843 0.152941 0 K
) @
(
%AI6_BeginPatternLayer
0 J 0 j 1 w 4 M []0 d64.3867 146.397 m
64.3867 146.1206 64.1631 145.897 63.8867 145.897 c
63.6104 145.897 63.3867 146.1206 63.3867 146.397 c
63.3867 146.6733 63.6104 146.897 63.8867 146.897 c
64.1631 146.897 64.3867 146.6733 64.3867 146.397 c
f
99.0068 134.73 m
99.0068 134.4536 98.7842 134.23 98.5068 134.23 c
98.2305 134.23 98.0068 134.4536 98.0068 134.73 c
98.0068 135.0063 98.2305 135.23 98.5068 135.23 c
98.7842 135.23 99.0068 135.0063 99.0068 134.73 c
f
30.6738 136.73 m
30.6738 136.4536 30.4502 136.23 30.1738 136.23 c
29.8975 136.23 29.6738 136.4536 29.6738 136.73 c
29.6738 137.0063 29.8975 137.23 30.1738 137.23 c
30.4502 137.23 30.6738 137.0063 30.6738 136.73 c
f
48.0068 160.397 m
48.0068 160.1206 47.7832 159.897 47.5068 159.897 c
47.2305 159.897 47.0068 160.1206 47.0068 160.397 c
47.0068 160.6733 47.2305 160.897 47.5068 160.897 c
47.7832 160.897 48.0068 160.6733 48.0068 160.397 c
f
25.6738 95.3965 m
25.6738 95.1211 25.4502 94.8965 25.1738 94.8965 c
24.8975 94.8965 24.6738 95.1211 24.6738 95.3965 c
24.6738 95.6738 24.8975 95.8965 25.1738 95.8965 c
25.4502 95.8965 25.6738 95.6738 25.6738 95.3965 c
f
64.6738 97.0635 m
64.6738 96.7871 64.4502 96.5635 64.1738 96.5635 c
63.8975 96.5635 63.6738 96.7871 63.6738 97.0635 c
63.6738 97.3398 63.8975 97.5635 64.1738 97.5635 c
64.4502 97.5635 64.6738 97.3398 64.6738 97.0635 c
f
90.0078 94.0635 m
90.0078 93.7871 89.7842 93.5635 89.5078 93.5635 c
89.2314 93.5635 89.0078 93.7871 89.0078 94.0635 c
89.0078 94.3398 89.2314 94.5635 89.5078 94.5635 c
89.7842 94.5635 90.0078 94.3398 90.0078 94.0635 c
f
72.0068 70.0625 m
72.0068 69.7871 71.7832 69.5625 71.5068 69.5625 c
71.2305 69.5625 71.0068 69.7871 71.0068 70.0625 c
71.0068 70.3398 71.2305 70.5625 71.5068 70.5625 c
71.7832 70.5625 72.0068 70.3398 72.0068 70.0625 c
f
45.6738 66.7305 m
45.6738 66.4531 45.4502 66.2305 45.1738 66.2305 c
44.8975 66.2305 44.6738 66.4531 44.6738 66.7305 c
44.6738 67.0059 44.8975 67.2305 45.1738 67.2305 c
45.4502 67.2305 45.6738 67.0059 45.6738 66.7305 c
f
24.0068 57.0625 m
24.0068 56.7871 23.7832 56.5625 23.5068 56.5625 c
23.2305 56.5625 23.0068 56.7871 23.0068 57.0625 c
23.0068 57.3398 23.2305 57.5625 23.5068 57.5625 c
23.7832 57.5625 24.0068 57.3398 24.0068 57.0625 c
f
54.6738 46.7305 m
54.6738 46.4531 54.4502 46.2305 54.1738 46.2305 c
53.8975 46.2305 53.6738 46.4531 53.6738 46.7305 c
53.6738 47.0059 53.8975 47.2305 54.1738 47.2305 c
54.4502 47.2305 54.6738 47.0059 54.6738 46.7305 c
f
31.0068 31.7305 m
31.0068 31.4531 30.7832 31.2305 30.5068 31.2305 c
30.2305 31.2305 30.0068 31.4531 30.0068 31.7305 c
30.0068 32.0059 30.2305 32.2305 30.5068 32.2305 c
30.7832 32.2305 31.0068 32.0059 31.0068 31.7305 c
f
55.3408 28.0625 m
55.3408 27.7871 55.1172 27.5625 54.8408 27.5625 c
54.5645 27.5625 54.3408 27.7871 54.3408 28.0625 c
54.3408 28.3398 54.5645 28.5625 54.8408 28.5625 c
55.1172 28.5625 55.3408 28.3398 55.3408 28.0625 c
f
105.0078 49.7305 m
105.0078 49.4531 104.7832 49.2305 104.5078 49.2305 c
104.2305 49.2305 104.0078 49.4531 104.0078 49.7305 c
104.0078 50.0059 104.2305 50.2305 104.5078 50.2305 c
104.7832 50.2305 105.0078 50.0059 105.0078 49.7305 c
f
104.5078 72.7305 m
104.5078 72.4531 104.2832 72.2305 104.0078 72.2305 c
103.7305 72.2305 103.5078 72.4531 103.5078 72.7305 c
103.5078 73.0059 103.7305 73.2305 104.0078 73.2305 c
104.2832 73.2305 104.5078 73.0059 104.5078 72.7305 c
f
117.0078 102.0635 m
117.0078 101.7871 116.7832 101.5635 116.5078 101.5635 c
116.2305 101.5635 116.0078 101.7871 116.0078 102.0635 c
116.0078 102.3398 116.2305 102.5635 116.5078 102.5635 c
116.7832 102.5635 117.0078 102.3398 117.0078 102.0635 c
f
62.3408 56.7305 m
62.3408 56.4531 62.1172 56.2305 61.8408 56.2305 c
61.5645 56.2305 61.3408 56.4531 61.3408 56.7305 c
61.3408 57.0059 61.5645 57.2305 61.8408 57.2305 c
62.1172 57.2305 62.3408 57.0059 62.3408 56.7305 c
f
55.3408 121.73 m
55.3408 121.4536 55.1172 121.23 54.8408 121.23 c
54.5645 121.23 54.3408 121.4536 54.3408 121.73 c
54.3408 122.0063 54.5645 122.23 54.8408 122.23 c
55.1172 122.23 55.3408 122.0063 55.3408 121.73 c
f
44.8408 111.23 m
44.8408 110.9536 44.6172 110.73 44.3408 110.73 c
44.0645 110.73 43.8408 110.9536 43.8408 111.23 c
43.8408 111.5063 44.0645 111.73 44.3408 111.73 c
44.6172 111.73 44.8408 111.5063 44.8408 111.23 c
f
127.6738 109.73 m
127.6738 109.4536 127.4492 109.23 127.1738 109.23 c
126.8965 109.23 126.6738 109.4536 126.6738 109.73 c
126.6738 110.0063 126.8965 110.23 127.1738 110.23 c
127.4492 110.23 127.6738 110.0063 127.6738 109.73 c
f
101.0068 122.0635 m
101.0068 121.7871 100.7842 121.5635 100.5068 121.5635 c
100.2305 121.5635 100.0068 121.7871 100.0068 122.0635 c
100.0068 122.3398 100.2305 122.5635 100.5068 122.5635 c
100.7842 122.5635 101.0068 122.3398 101.0068 122.0635 c
f
106.0078 146.397 m
106.0078 146.1206 105.7832 145.897 105.5078 145.897 c
105.2305 145.897 105.0078 146.1206 105.0078 146.397 c
105.0078 146.6733 105.2305 146.897 105.5078 146.897 c
105.7832 146.897 106.0078 146.6733 106.0078 146.397 c
f
144.0078 159.397 m
144.0078 159.1206 143.7832 158.897 143.5078 158.897 c
143.2305 158.897 143.0078 159.1206 143.0078 159.397 c
143.0078 159.6733 143.2305 159.897 143.5078 159.897 c
143.7832 159.897 144.0078 159.6733 144.0078 159.397 c
f
123.3398 162.397 m
123.3398 162.1206 123.1172 161.897 122.8398 161.897 c
122.5645 161.897 122.3398 162.1206 122.3398 162.397 c
122.3398 162.6733 122.5645 162.897 122.8398 162.897 c
123.1172 162.897 123.3398 162.6733 123.3398 162.397 c
f
83.3408 162.397 m
83.3408 162.1206 83.1172 161.897 82.8408 161.897 c
82.5645 161.897 82.3408 162.1206 82.3408 162.397 c
82.3408 162.6733 82.5645 162.897 82.8408 162.897 c
83.1172 162.897 83.3408 162.6733 83.3408 162.397 c
f
145.2246 84.2813 m
145.2246 84.0049 145.002 83.7813 144.7246 83.7813 c
144.4492 83.7813 144.2246 84.0049 144.2246 84.2813 c
144.2246 84.5576 144.4492 84.7813 144.7246 84.7813 c
145.002 84.7813 145.2246 84.5576 145.2246 84.2813 c
f
90.3408 29.3965 m
90.3408 29.1191 90.1172 28.8965 89.8408 28.8965 c
89.5645 28.8965 89.3408 29.1191 89.3408 29.3965 c
89.3408 29.6719 89.5645 29.8965 89.8408 29.8965 c
90.1172 29.8965 90.3408 29.6719 90.3408 29.3965 c
f
138.6738 25.7305 m
138.6738 25.4531 138.4492 25.2305 138.1738 25.2305 c
137.8965 25.2305 137.6738 25.4531 137.6738 25.7305 c
137.6738 26.0059 137.8965 26.2305 138.1738 26.2305 c
138.4492 26.2305 138.6738 26.0059 138.6738 25.7305 c
f
150.0078 75.3965 m
150.0078 75.1211 149.7832 74.8965 149.5078 74.8965 c
149.2305 74.8965 149.0078 75.1211 149.0078 75.3965 c
149.0078 75.6738 149.2305 75.8965 149.5078 75.8965 c
149.7832 75.8965 150.0078 75.6738 150.0078 75.3965 c
f
148.6738 100.397 m
148.6738 100.1211 148.4492 99.8965 148.1738 99.8965 c
147.8965 99.8965 147.6738 100.1211 147.6738 100.397 c
147.6738 100.6733 147.8965 100.897 148.1738 100.897 c
148.4492 100.897 148.6738 100.6733 148.6738 100.397 c
f
104.6738 99.8965 m
104.6738 99.6211 104.4492 99.3965 104.1738 99.3965 c
103.8965 99.3965 103.6738 99.6211 103.6738 99.8965 c
103.6738 100.1738 103.8965 100.397 104.1738 100.397 c
104.4492 100.397 104.6738 100.1738 104.6738 99.8965 c
f
110.0078 109.73 m
110.0078 109.4536 109.7832 109.23 109.5078 109.23 c
109.2305 109.23 109.0078 109.4536 109.0078 109.73 c
109.0078 110.0063 109.2305 110.23 109.5078 110.23 c
109.7832 110.23 110.0078 110.0063 110.0078 109.73 c
f
81.0068 118.96 m
81.0068 118.6836 80.7832 118.46 80.5068 118.46 c
80.2305 118.46 80.0068 118.6836 80.0068 118.96 c
80.0068 119.2363 80.2305 119.46 80.5068 119.46 c
80.7832 119.46 81.0068 119.2363 81.0068 118.96 c
f
52.0068 117.0635 m
52.0068 116.7871 51.7832 116.5635 51.5068 116.5635 c
51.2305 116.5635 51.0068 116.7871 51.0068 117.0635 c
51.0068 117.3398 51.2305 117.5635 51.5068 117.5635 c
51.7832 117.5635 52.0068 117.3398 52.0068 117.0635 c
f
64.5068 104.5635 m
64.5068 104.2871 64.2832 104.0635 64.0068 104.0635 c
63.7305 104.0635 63.5068 104.2871 63.5068 104.5635 c
63.5068 104.8398 63.7305 105.0635 64.0068 105.0635 c
64.2832 105.0635 64.5068 104.8398 64.5068 104.5635 c
f
55.6738 101.73 m
55.6738 101.4536 55.4502 101.23 55.1738 101.23 c
54.8975 101.23 54.6738 101.4536 54.6738 101.73 c
54.6738 102.0063 54.8975 102.23 55.1738 102.23 c
55.4502 102.23 55.6738 102.0063 55.6738 101.73 c
f
28.3408 52.7305 m
28.3408 52.4531 28.1172 52.2305 27.8408 52.2305 c
27.5645 52.2305 27.3408 52.4531 27.3408 52.7305 c
27.3408 53.0059 27.5645 53.2305 27.8408 53.2305 c
28.1172 53.2305 28.3408 53.0059 28.3408 52.7305 c
f
69.8779 63.6074 m
69.8779 63.3301 69.6543 63.1074 69.3779 63.1074 c
69.1016 63.1074 68.8779 63.3301 68.8779 63.6074 c
68.8779 63.8828 69.1016 64.1074 69.3779 64.1074 c
69.6543 64.1074 69.8779 63.8828 69.8779 63.6074 c
f
25.8408 154.897 m
25.8408 154.6206 25.6172 154.397 25.3408 154.397 c
25.0645 154.397 24.8408 154.6206 24.8408 154.897 c
24.8408 155.1733 25.0645 155.397 25.3408 155.397 c
25.6172 155.397 25.8408 155.1733 25.8408 154.897 c
f
111.6738 81.7305 m
111.6738 81.4531 111.4492 81.2305 111.1738 81.2305 c
110.8965 81.2305 110.6738 81.4531 110.6738 81.7305 c
110.6738 82.0059 110.8965 82.2305 111.1738 82.2305 c
111.4492 82.2305 111.6738 82.0059 111.6738 81.7305 c
f
35.6738 110.397 m
35.6738 110.1206 35.4502 109.897 35.1738 109.897 c
34.8975 109.897 34.6738 110.1206 34.6738 110.397 c
34.6738 110.6733 34.8975 110.897 35.1738 110.897 c
35.4502 110.897 35.6738 110.6733 35.6738 110.397 c
f
151.4922 152.2456 m
151.4922 151.9692 151.2676 151.7456 150.9922 151.7456 c
150.7148 151.7456 150.4922 151.9692 150.4922 152.2456 c
150.4922 152.522 150.7148 152.7456 150.9922 152.7456 c
151.2676 152.7456 151.4922 152.522 151.4922 152.2456 c
f
119.5898 53.6465 m
119.5898 53.3711 119.3672 53.1465 119.0898 53.1465 c
118.8145 53.1465 118.5898 53.3711 118.5898 53.6465 c
118.5898 53.9238 118.8145 54.1465 119.0898 54.1465 c
119.3672 54.1465 119.5898 53.9238 119.5898 53.6465 c
f
118.2207 151.0635 m
118.2207 150.7871 117.998 150.5635 117.7207 150.5635 c
117.4453 150.5635 117.2207 150.7871 117.2207 151.0635 c
117.2207 151.3398 117.4453 151.5635 117.7207 151.5635 c
117.998 151.5635 118.2207 151.3398 118.2207 151.0635 c
f
22.3408 128.3965 m
22.3408 128.1201 22.1172 127.8965 21.8408 127.8965 c
21.5645 127.8965 21.3408 128.1201 21.3408 128.3965 c
21.3408 128.6729 21.5645 128.8965 21.8408 128.8965 c
22.1172 128.8965 22.3408 128.6729 22.3408 128.3965 c
f
79.6738 90.0635 m
79.6738 89.7871 79.4502 89.5635 79.1738 89.5635 c
78.8975 89.5635 78.6738 89.7871 78.6738 90.0635 c
78.6738 90.3398 78.8975 90.5635 79.1738 90.5635 c
79.4502 90.5635 79.6738 90.3398 79.6738 90.0635 c
f
14.5078 45.8965 m
14.5078 45.6211 14.2842 45.3965 14.0078 45.3965 c
13.7314 45.3965 13.5078 45.6211 13.5078 45.8965 c
13.5078 46.1738 13.7314 46.3965 14.0078 46.3965 c
14.2842 46.3965 14.5078 46.1738 14.5078 45.8965 c
f
64.3408 41.3965 m
64.3408 41.1211 64.1172 40.8965 63.8408 40.8965 c
63.5645 40.8965 63.3408 41.1211 63.3408 41.3965 c
63.3408 41.6738 63.5645 41.8965 63.8408 41.8965 c
64.1172 41.8965 64.3408 41.6738 64.3408 41.3965 c
f
76.3408 29.3965 m
76.3408 29.1211 76.1172 28.8965 75.8408 28.8965 c
75.5645 28.8965 75.3408 29.1211 75.3408 29.3965 c
75.3408 29.6738 75.5645 29.8965 75.8408 29.8965 c
76.1172 29.8965 76.3408 29.6738 76.3408 29.3965 c
f
100.6729 86.7305 m
100.6729 86.4531 100.4492 86.2305 100.1729 86.2305 c
99.8975 86.2305 99.6729 86.4531 99.6729 86.7305 c
99.6729 87.0059 99.8975 87.2305 100.1729 87.2305 c
100.4492 87.2305 100.6729 87.0059 100.6729 86.7305 c
f
63.5068 63.3965 m
63.5068 63.1211 63.2832 62.8965 63.0068 62.8965 c
62.7305 62.8965 62.5068 63.1211 62.5068 63.3965 c
62.5068 63.6738 62.7305 63.8965 63.0068 63.8965 c
63.2832 63.8965 63.5068 63.6738 63.5068 63.3965 c
f
30.1738 81.2305 m
30.1738 80.9541 29.9502 80.7305 29.6738 80.7305 c
29.3975 80.7305 29.1738 80.9541 29.1738 81.2305 c
29.1738 81.5068 29.3975 81.7305 29.6738 81.7305 c
29.9502 81.7305 30.1738 81.5068 30.1738 81.2305 c
f
76.2373 140.501 m
76.2373 140.2246 76.0137 140.001 75.7373 140.001 c
75.4609 140.001 75.2373 140.2246 75.2373 140.501 c
75.2373 140.7773 75.4609 141.001 75.7373 141.001 c
76.0137 141.001 76.2373 140.7773 76.2373 140.501 c
f
72.4492 157.1724 m
72.4492 156.896 72.2256 156.6724 71.9492 156.6724 c
71.6729 156.6724 71.4492 156.896 71.4492 157.1724 c
71.4492 157.4487 71.6729 157.6724 71.9492 157.6724 c
72.2256 157.6724 72.4492 157.4487 72.4492 157.1724 c
f
150.0078 64.3965 m
150.0078 64.1211 149.7832 63.8965 149.5078 63.8965 c
149.2305 63.8965 149.0078 64.1211 149.0078 64.3965 c
149.0078 64.6738 149.2305 64.8965 149.5078 64.8965 c
149.7832 64.8965 150.0078 64.6738 150.0078 64.3965 c
f
136.3398 55.3965 m
136.3398 55.1211 136.1172 54.8965 135.8398 54.8965 c
135.5645 54.8965 135.3398 55.1211 135.3398 55.3965 c
135.3398 55.6738 135.5645 55.8965 135.8398 55.8965 c
136.1172 55.8965 136.3398 55.6738 136.3398 55.3965 c
f
134.0078 33.7305 m
134.0078 33.4531 133.7832 33.2305 133.5078 33.2305 c
133.2305 33.2305 133.0078 33.4531 133.0078 33.7305 c
133.0078 34.0059 133.2305 34.2305 133.5078 34.2305 c
133.7832 34.2305 134.0078 34.0059 134.0078 33.7305 c
f
151.3398 28.7305 m
151.3398 28.4531 151.1172 28.2305 150.8398 28.2305 c
150.5645 28.2305 150.3398 28.4531 150.3398 28.7305 c
150.3398 29.0059 150.5645 29.2305 150.8398 29.2305 c
151.1172 29.2305 151.3398 29.0059 151.3398 28.7305 c
f
135.6738 139.4287 m
135.6738 139.1523 135.4492 138.9287 135.1738 138.9287 c
134.8965 138.9287 134.6738 139.1523 134.6738 139.4287 c
134.6738 139.7051 134.8965 139.9287 135.1738 139.9287 c
135.4492 139.9287 135.6738 139.7051 135.6738 139.4287 c
f
85.6738 128.397 m
85.6738 128.1206 85.4502 127.897 85.1738 127.897 c
84.8975 127.897 84.6738 128.1206 84.6738 128.397 c
84.6738 128.6733 84.8975 128.897 85.1738 128.897 c
85.4502 128.897 85.6738 128.6733 85.6738 128.397 c
f
18.3408 91.0635 m
18.3408 90.7871 18.1172 90.5635 17.8408 90.5635 c
17.5645 90.5635 17.3408 90.7871 17.3408 91.0635 c
17.3408 91.3398 17.5645 91.5635 17.8408 91.5635 c
18.1172 91.5635 18.3408 91.3398 18.3408 91.0635 c
f
88.0078 63.0625 m
88.0078 62.7871 87.7842 62.5625 87.5078 62.5625 c
87.2314 62.5625 87.0078 62.7871 87.0078 63.0625 c
87.0078 63.3398 87.2314 63.5625 87.5078 63.5625 c
87.7842 63.5625 88.0078 63.3398 88.0078 63.0625 c
f
56.6738 78.3965 m
56.6738 78.1211 56.4502 77.8965 56.1738 77.8965 c
55.8975 77.8965 55.6738 78.1211 55.6738 78.3965 c
55.6738 78.6738 55.8975 78.8965 56.1738 78.8965 c
56.4502 78.8965 56.6738 78.6738 56.6738 78.3965 c
f
51.0068 127.73 m
51.0068 127.4536 50.7832 127.23 50.5068 127.23 c
50.2305 127.23 50.0068 127.4536 50.0068 127.73 c
50.0068 128.0063 50.2305 128.23 50.5068 128.23 c
50.7832 128.23 51.0068 128.0063 51.0068 127.73 c
f
%AI6_EndPatternLayer
) &
] E
%AI3_EndPattern
%%EndSetup
0 A
u
u
0 O
0 0.956863 0.568627 0 k
0 J 0 j 1 w 4 M []0 d261.8535 416.2041 m
241.1084 416.2041 L
241.1084 436.9497 L
261.8535 436.9497 L
261.8535 416.2041 L
f
284.6738 416.2041 m
263.9277 416.2041 L
263.9277 436.9497 L
284.6738 436.9497 L
284.6738 416.2041 L
f
307.4932 416.2041 m
286.749 416.2041 L
286.749 436.9497 L
307.4932 436.9497 L
307.4932 416.2041 L
f
272.2275 405.8311 m
251.4805 405.8311 L
251.4805 426.5767 L
272.2275 426.5767 L
272.2275 405.8311 L
f
297.1201 426.5767 m
276.376 426.5767 L
276.376 447.3228 L
297.1201 447.3228 L
297.1201 426.5767 L
f
U
u
u
*u
0.941176 0.819608 0.807843 0.894118 k
316.2119 433.6221 m
309.5703 433.6221 L
309.5703 436.9414 L
326.6895 436.9414 L
326.6895 433.6221 L
320.0488 433.6221 L
320.0488 416.248 L
316.2119 416.248 l
316.2119 433.6221 L
f
*U
*u
345.9365 423.8516 m
345.9365 422.6055 345.7129 421.4805 345.2646 420.4771 c
344.8164 419.4736 344.2051 418.6211 343.4297 417.9209 c
342.6543 417.2178 341.7393 416.6787 340.6787 416.2998 c
339.6191 415.9189 338.4678 415.7295 337.2236 415.7295 c
335.9814 415.7295 334.8301 415.9189 333.7695 416.2998 c
332.709 416.6787 331.7861 417.2178 331.0029 417.9209 c
330.2178 418.6211 329.6055 419.4736 329.1689 420.4771 c
328.7295 421.4805 328.5117 422.6055 328.5117 423.8516 c
328.5117 436.9414 L
332.3496 436.9414 L
332.3496 423.9839 L
332.3496 423.4785 332.4297 422.9478 332.5938 422.3931 c
332.7568 421.8389 333.0273 421.3276 333.4063 420.8604 c
333.7842 420.3936 334.2852 420.0093 334.9092 419.708 c
335.5313 419.4072 336.3027 419.2559 337.2236 419.2559 c
338.1436 419.2559 338.916 419.4072 339.5391 419.708 c
340.1621 420.0093 340.6641 420.3936 341.042 420.8604 c
341.4199 421.3276 341.6904 421.8389 341.8545 422.3931 c
342.0176 422.9478 342.0996 423.4785 342.0996 423.9839 c
342.0996 436.9414 L
345.9365 436.9414 l
345.9365 423.8516 L
f
*U
U
u
*u
324.3652 413.3975 m
323.6045 413.7256 322.6191 413.8828 321.8311 413.8828 c
319.5381 413.8828 318.2705 412.4404 318.2705 410.5654 c
318.2705 408.7041 319.5098 407.3018 321.6055 407.3018 c
322.1406 407.3018 322.5645 407.3545 322.9014 407.4326 c
322.9014 409.8184 L
320.8184 409.8184 L
320.8184 411.2607 L
324.7871 411.2607 L
324.7871 406.3311 L
323.7461 406.0693 322.6611 405.8594 321.6055 405.8594 c
318.4248 405.8594 316.2148 407.3408 316.2148 410.4346 c
316.2148 413.5684 318.2705 415.3252 321.6055 415.3252 c
322.7461 415.3252 323.6465 415.1807 324.4912 414.9443 C
324.3652 413.3975 l
f
*U
*u
326.7285 412.7686 m
328.4043 412.7686 L
328.4043 411.2344 L
328.4326 411.2344 L
328.5166 411.8643 329.29 412.9258 330.416 412.9258 c
330.5996 412.9258 330.7979 412.9258 330.9932 412.873 c
330.9932 411.1025 L
330.8252 411.1943 330.4873 411.2471 330.1484 411.2471 c
328.6152 411.2471 328.6152 409.4639 328.6152 408.4951 c
328.6152 406.0166 L
326.7285 406.0166 L
326.7285 412.7686 l
f
*U
*u
332.4844 412.4141 m
333.2158 412.7295 334.2021 412.9258 335.0049 412.9258 c
337.2139 412.9258 338.1289 412.0732 338.1289 410.0801 c
338.1289 409.2148 L
338.1289 408.5342 338.1436 408.0225 338.1572 407.5244 c
338.1719 407.0127 338.1992 406.541 338.2422 406.0166 c
336.5811 406.0166 L
336.5107 406.3701 336.5107 406.8164 336.4971 407.0264 c
336.4678 407.0264 L
336.0322 406.2793 335.0879 405.8594 334.2305 405.8594 c
332.9502 405.8594 331.6963 406.5801 331.6963 407.8652 c
331.6963 408.874 332.2168 409.4639 332.9355 409.792 c
333.6543 410.1201 334.582 410.1855 335.3711 410.1855 c
336.4121 410.1855 L
336.4121 411.2734 335.8916 411.6406 334.7793 411.6406 c
333.9775 411.6406 333.1748 411.3525 332.542 410.9072 C
332.4844 412.4141 l
f
1 D
334.6953 407.1436 m
335.2725 407.1436 335.7227 407.3799 336.0176 407.7471 c
336.3271 408.127 336.4121 408.6123 336.4121 409.1367 c
335.5957 409.1367 L
334.752 409.1367 333.499 409.0059 333.499 407.9697 c
333.499 407.3936 334.0195 407.1436 334.6953 407.1436 c
f
*U
*u
0 D
339.6777 412.7686 m
345.4199 412.7686 L
345.4199 411.3262 L
341.8154 407.3799 L
345.5469 407.3799 L
345.5469 406.0166 L
339.5225 406.0166 L
339.5225 407.4463 L
343.1953 411.4053 L
339.6777 411.4053 L
339.6777 412.7686 l
f
*U
U
U
0 0.956863 0.568627 0 k
347.0732 405.8311 m
353.9844 405.8311 L
353.9844 412.7422 L
347.0732 412.7422 L
347.0732 405.8311 L
f
U
%%PageTrailer
gsave annotatepage grestore showpage
%%Trailer
Adobe_Illustrator_AI3 /terminate get exec
Adobe_pattern_AI3 /terminate get exec
Adobe_customcolor /terminate get exec
Adobe_cshow /terminate get exec
Adobe_cmykcolor /terminate get exec
Adobe_packedarray /terminate get exec
%%EOF
